%IncMSE	IncNodePurity
MFE	72.5480128553382	69.606802728986
DR	8.26687590624445	4.06794749088384
Gquad	-3.02741643094889	0.0219290678396632
Log10_Unpaired	72.1077522494835	57.563544303731
hybMFE_3.12	47.3083433424183	46.746248834314
hybMFE_15.9	54.5792888606558	94.9856819802956
NTdens_max_A	33.6556880499817	16.1888372761959
NTdens_max_C	29.8185509226618	14.2188540522174
NTdens_max_G	86.6814446488762	47.9987343235218
NTdens_max_T	38.7535356025577	24.4656736766712
NTdens_max_AT	22.4841996420783	14.258543964884
NTdens_max_GC	39.72356454228	59.0804969413969
NTdens_min_A	34.6632279804891	17.4928246941342
NTdens_min_C	56.9153450481649	37.2136922405002
NTdens_min_G	36.5243842835523	19.6159122694143
NTdens_min_T	35.6886127283579	16.2571142006753
NTdens_min_AT	38.8317577667964	56.3598835523876
pA	39.7296877826856	25.0736312228822
pC	36.0900725490708	16.863658091331
pG	47.7324108508295	29.2451706823813
pAA	33.2106326677385	13.3830071013901
pAC	36.2900922624081	14.2360985372876
pAG	34.9533520991029	14.6260304179731
pAT	42.112849794167	15.6205382920147
pCA	47.6241432120872	21.4663940747482
pCC	32.2834459084893	12.9797439952113
pCG	44.0711499404136	11.7068745965382
pCT	40.6967113315833	16.9172424282231
pGA	31.383745690128	13.1399256800083
pGC	33.066959950165	13.3208768068864
pGG	38.5896400785551	22.2621430421609
pGT	31.8413360268601	12.8934332204611
pTA	30.6930224294029	12.5052170969579
pTC	36.3043390036949	15.2075337906916
pTG	31.9188392688857	13.1658652239545
