GuideName,GuideSeq,MatchPos,GuideScores,Rank,standardizedGuideScores,quartiles
crRNA761:810-832,ATCTACGTTAAAAGGCAGGACAT,832,1.32248230507497,0.999,0.893320189878472,4
crRNA813:913-935,ACACAGTGAAAAGGCAGAAGCGG,935,1.2930885033677,0.998,0.876996240675863,4
crRNA815:915-937,CAACACAGTGAAAAGGCAGAAGC,937,1.26391103485974,0.997,0.860792432861955,4
crRNA877:977-999,GCTCGCAAGAAATGCCCACATGA,999,1.23287309725412,0.996,0.843555407115041,4
crRNA739:769-791,CTAAATGAAAACTACGAAAGCGG,791,1.22460080698922,0.9949,0.838961362172563,4
crRNA830:930-952,CACTCCAGAAAACTCCAACACAG,952,1.21649783023784,0.9939,0.834461346074038,4
crRNA812:912-934,CACAGTGAAAAGGCAGAAGCGGT,934,1.19689633846566,0.9929,0.823575589982635,4
crRNA945:1063-1085,GACTCAAGAGAAGCCAGTAACCC,1085,1.1831480288329,0.9919,0.815940418788993,4
crRNA811:911-933,ACAGTGAAAAGGCAGAAGCGGTG,933,1.175654858168,0.9909,0.811779060604762,4
crRNA817:917-939,TCCAACACAGTGAAAAGGCAGAA,939,1.17138648124324,0.9899,0.80940860275139,4
crRNA764:813-835,TATATCTACGTTAAAAGGCAGGA,835,1.16556930036495,0.9889,0.806178011278221,4
crRNA814:914-936,AACACAGTGAAAAGGCAGAAGCG,936,1.16167228866968,0.9879,0.804013792386457,4
crRNA738:768-790,TAAATGAAAACTACGAAAGCGGG,790,1.13268899943849,0.9869,0.787917822703926,4
crRNA944:1062-1084,ACTCAAGAGAAGCCAGTAACCCC,1084,1.12937540536996,0.9859,0.786077606804282,4
crRNA737:767-789,AAATGAAAACTACGAAAGCGGGG,789,1.12139832086316,0.9848,0.781647505398183,4
crRNA878:978-1000,GGCTCGCAAGAAATGCCCACATG,1000,1.1125651329884,0.9838,0.776741964032669,4
crRNA917:1017-1039,AATGCTTGTCATGAAGTCGACAG,1039,1.10899180138119,0.9828,0.774757501994684,4
crRNA159:161-183,GTCACCAAGAACCTGCGCACCAT,183,1.10158146363892,0.9818,0.770642145359851,4
crRNA916:1016-1038,ATGCTTGTCATGAAGTCGACAGC,1038,1.07551940400192,0.9808,0.756168490612274,4
crRNA765:814-836,ATATATCTACGTTAAAAGGCAGG,836,1.07099516491304,0.9798,0.7536559388232,4
crRNA211:217-239,TGTGAACCACGAAAACCCTCACT,239,1.06253814981512,0.9788,0.748959306307304,4
crRNA816:916-938,CCAACACAGTGAAAAGGCAGAAG,938,1.0599242761365,0.9778,0.747507682540605,4
crRNA909:1009-1031,TCATGAAGTCGACAGCTTCCGGA,1031,1.05830096658403,0.9768,0.746606171979346,4
crRNA950:1068-1090,AGTGTGACTCAAGAGAAGCCAGT,1090,1.05692860788202,0.9758,0.745844027838806,4
crRNA210:216-238,GTGAACCACGAAAACCCTCACTC,238,1.05308958063175,0.9747,0.743712010808653,4
crRNA158:160-182,TCACCAAGAACCTGCGCACCATG,182,1.04335642934379,0.9737,0.738306671656262,4
crRNA212:218-240,ATGTGAACCACGAAAACCCTCAC,240,1.03704276138468,0.9727,0.734800354369607,4
crRNA943:1061-1083,CTCAAGAGAAGCCAGTAACCCCC,1083,1.0351867728724,0.9717,0.733769624745153,4
crRNA831:931-953,TCACTCCAGAAAACTCCAACACA,953,1.03066626473852,0.9707,0.731259144954811,4
crRNA919:1019-1041,AAAATGCTTGTCATGAAGTCGAC,1041,1.00322390271478,0.9697,0.716018934513964,4
crRNA670:700-722,ACTGATGATCTAAGTTTCCCGAG,722,0.999426537248054,0.9687,0.71391005449906,4
crRNA547:559-581,GACATCGCGATGGCCCAGCTCCT,581,0.997610028242507,0.9677,0.712901249954893,4
crRNA209:215-237,TGAACCACGAAAACCCTCACTCG,237,0.988383055867135,0.9667,0.707777019008196,4
crRNA144:146-168,CGCACCATGTTCTCGCCGCCTCC,168,0.986724396509758,0.9657,0.706855876810807,4
crRNA208:214-236,GAACCACGAAAACCCTCACTCGC,236,0.985240586420553,0.9646,0.706031837757822,4
crRNA912:1012-1034,TTGTCATGAAGTCGACAGCTTCC,1034,0.976614587111999,0.9636,0.701241359277464,4
crRNA341:350-372,CGCTGCCCATCATCATGACCTGG,372,0.975258072411987,0.9626,0.700488014158104,4
crRNA818:918-940,CTCCAACACAGTGAAAAGGCAGA,940,0.973588882899767,0.9616,0.699561024002888,4
crRNA962:1080-1102,CCATTTGCTAGCAGTGTGACTCA,1102,0.970695410500501,0.9606,0.697954124121915,4
crRNA142:144-166,CACCATGTTCTCGCCGCCTCCAG,166,0.964019713371049,0.9596,0.694246752686316,4
crRNA465:474-496,TGCAGCACCACCAGCGTGTCCAG,496,0.961726781862471,0.9586,0.692973365261176,4
crRNA951:1069-1091,CAGTGTGACTCAAGAGAAGCCAG,1091,0.958239740835301,0.9576,0.691036824994564,4
crRNA546:558-580,ACATCGCGATGGCCCAGCTCCTC,580,0.955651287565241,0.9566,0.689599318539476,4
crRNA879:979-1001,AGGCTCGCAAGAAATGCCCACAT,1001,0.952991671062229,0.9556,0.688122291337416,4
crRNA141:143-165,ACCATGTTCTCGCCGCCTCCAGG,165,0.942904944560787,0.9545,0.68252059297019,4
crRNA915:1015-1037,TGCTTGTCATGAAGTCGACAGCT,1037,0.937114139426506,0.9535,0.679304649357465,4
crRNA963:1081-1103,GCCATTTGCTAGCAGTGTGACTC,1103,0.935331472126603,0.9525,0.678314638921299,4
crRNA143:145-167,GCACCATGTTCTCGCCGCCTCCA,167,0.933814462453765,0.9515,0.677472162364986,4
crRNA669:699-721,CTGATGATCTAAGTTTCCCGAGG,721,0.92894685627396,0.9505,0.674768920477164,4
crRNA146:148-170,TGCGCACCATGTTCTCGCCGCCT,170,0.927141572697463,0.9495,0.673766350013754,4
crRNA035:37-59,CCACGCACCGCCCCCTGCCCATC,59,0.925856091185583,0.9485,0.673052453420526,4
crRNA832:932-954,CTCACTCCAGAAAACTCCAACAC,954,0.91497142951408,0.9475,0.6670076190033,4
crRNA466:475-497,GTGCAGCACCACCAGCGTGTCCA,497,0.905392825751271,0.9465,0.661688108352272,4
crRNA869:969-991,GAAATGCCCACATGAATGTGCGC,991,0.901466560955083,0.9455,0.659507643649977,4
crRNA908:1008-1030,CATGAAGTCGACAGCTTCCGGAG,1030,0.901242640470994,0.9444,0.659383288636492,4
crRNA342:351-373,GCGCTGCCCATCATCATGACCTG,373,0.901068187059018,0.9434,0.659286405332192,4
crRNA340:349-371,GCTGCCCATCATCATGACCTGGT,371,0.901040865650977,0.9424,0.659271232293963,4
crRNA157:159-181,CACCAAGAACCTGCGCACCATGT,181,0.895658064841357,0.9414,0.656281875290773,4
crRNA795:844-866,AAATGGACATTTACGGTAGTGGG,866,0.895072273853908,0.9404,0.655956554244599,4
crRNA868:968-990,AAATGCCCACATGAATGTGCGCT,990,0.894555229080984,0.9394,0.655669411645871,4
crRNA548:560-582,CGACATCGCGATGGCCCAGCTCC,582,0.893475157448438,0.9384,0.655069590137907,4
crRNA671:701-723,GACTGATGATCTAAGTTTCCCGA,723,0.88934457686422,0.9374,0.652775657957729,4
crRNA053:55-77,TTAACTGCAGACTGGGACCCACG,77,0.886140898357664,0.9364,0.650996484044694,4
crRNA149:151-173,ACCTGCGCACCATGTTCTCGCCG,173,0.882650537541725,0.9354,0.649058100121934,4
crRNA051:53-75,AACTGCAGACTGGGACCCACGCA,75,0.876597772810084,0.9343,0.645696676342912,4
crRNA145:147-169,GCGCACCATGTTCTCGCCGCCTC,169,0.876267418548722,0.9333,0.645513212963965,4
crRNA147:149-171,CTGCGCACCATGTTCTCGCCGCC,171,0.872960328019056,0.9323,0.643676608827067,4
crRNA457:466-488,CACCAGCGTGTCCAGGAAGCCCT,488,0.870616685872971,0.9313,0.642375059074409,4
crRNA052:54-76,TAACTGCAGACTGGGACCCACGC,76,0.866757722045847,0.9303,0.640231970197508,4
crRNA160:162-184,GGTCACCAAGAACCTGCGCACCA,184,0.866581780735926,0.9293,0.640134260583951,4
crRNA285:294-316,GCTCCTCAGTAGCATCAGCACGA,316,0.864138137251714,0.9283,0.638777174743105,4
crRNA464:473-495,GCAGCACCACCAGCGTGTCCAGG,495,0.856691468097664,0.9273,0.634641641333376,4
crRNA913:1013-1035,CTTGTCATGAAGTCGACAGCTTC,1035,0.856629251892003,0.9263,0.634607089348883,4
crRNA910:1010-1032,GTCATGAAGTCGACAGCTTCCGG,1032,0.856327274371307,0.9253,0.634439385090779,4
crRNA207:213-235,AACCACGAAAACCCTCACTCGCG,235,0.853422129730075,0.9242,0.632826002989954,4
crRNA148:150-172,CCTGCGCACCATGTTCTCGCCGC,172,0.852761534165182,0.9232,0.632459138963579,4
crRNA544:556-578,ATCGCGATGGCCCAGCTCCTCAG,578,0.847686730645469,0.9222,0.629640829318096,4
crRNA206:212-234,ACCACGAAAACCCTCACTCGCGG,234,0.844652837527355,0.9212,0.627955946306383,4
crRNA794:843-865,AATGGACATTTACGGTAGTGGGG,865,0.841374159873889,0.9202,0.626135121358323,4
crRNA867:967-989,AATGCCCACATGAATGTGCGCTT,989,0.838609705215485,0.9192,0.624599871924919,4
crRNA550:562-584,TGCGACATCGCGATGGCCCAGCT,584,0.833510740124598,0.9182,0.621768144067513,4
crRNA050:52-74,ACTGCAGACTGGGACCCACGCAC,74,0.831486758204807,0.9172,0.620644118724528,4
crRNA866:966-988,ATGCCCACATGAATGTGCGCTTA,988,0.829282897153931,0.9162,0.619420196885414,4
crRNA455:464-486,CCAGCGTGTCCAGGAAGCCCTCC,486,0.826491894132944,0.9152,0.617870203727242,4
crRNA833:933-955,GCTCACTCCAGAAAACTCCAACA,955,0.825736619165497,0.9141,0.617450759167964,4
crRNA458:467-489,CCACCAGCGTGTCCAGGAAGCCC,489,0.824030960461515,0.9131,0.616503515721264,4
crRNA820:920-942,AACTCCAACACAGTGAAAAGGCA,942,0.823332355952853,0.9121,0.616115543296817,4
crRNA796:845-867,TAAATGGACATTTACGGTAGTGG,867,0.820783577378007,0.9111,0.614700070320614,4
crRNA032:34-56,CGCACCGCCCCCTGCCCATCTCC,56,0.81298810106931,0.9101,0.610370825653979,4
crRNA949:1067-1089,GTGTGACTCAAGAGAAGCCAGTA,1089,0.811849196340013,0.9091,0.609738330982728,4
crRNA061:63-85,CTGCCCCCTTAACTGCAGACTGG,85,0.810797688347152,0.9081,0.609154372390623,4
crRNA827:927-949,TCCAGAAAACTCCAACACAGTGA,949,0.809403675325454,0.9071,0.608380202448926,4
crRNA865:965-987,TGCCCACATGAATGTGCGCTTAG,987,0.808993076726979,0.9061,0.608152175100476,4
crRNA920:1020-1042,CAAAATGCTTGTCATGAAGTCGA,1042,0.805422161042412,0.9051,0.606169054753465,4
crRNA054:56-78,CTTAACTGCAGACTGGGACCCAC,78,0.803970023296231,0.904,0.605362605045465,4
crRNA961:1079-1101,CATTTGCTAGCAGTGTGACTCAA,1101,0.801457768909546,0.903,0.603967415903186,4
crRNA829:929-951,ACTCCAGAAAACTCCAACACAGT,951,0.799427776354181,0.902,0.602840052532995,4
crRNA033:35-57,ACGCACCGCCCCCTGCCCATCTC,57,0.798095839833505,0.901,0.602100356990337,4
crRNA034:36-58,CACGCACCGCCCCCTGCCCATCT,58,0.797830146982071,0.9,0.60195280354851,4
crRNA302:311-333,TGCTGCCCTAGACGCTGGCTCCT,333,0.796569683513353,0.899,0.601252800811878,4
crRNA456:465-487,ACCAGCGTGTCCAGGAAGCCCTC,487,0.795014321579707,0.898,0.60038902519519,4
crRNA545:557-579,CATCGCGATGGCCCAGCTCCTCA,579,0.794022777046044,0.897,0.599838367517056,4
crRNA030:32-54,CACCGCCCCCTGCCCATCTCCGC,54,0.792130610210246,0.896,0.598787546135799,4
crRNA797:846-868,ATAAATGGACATTTACGGTAGTG,868,0.788643556247394,0.8949,0.596850998685311,4
crRNA463:472-494,CAGCACCACCAGCGTGTCCAGGA,494,0.78471450867547,0.8939,0.594668988558909,4
crRNA760:809-831,TCTACGTTAAAAGGCAGGACATT,831,0.780402385103122,0.8929,0.592274235853852,4
crRNA213:219-241,GATGTGAACCACGAAAACCCTCA,241,0.780397736685636,0.8919,0.592271654339162,4
crRNA819:919-941,ACTCCAACACAGTGAAAAGGCAG,941,0.778946087145195,0.8909,0.591465475757903,4
crRNA928:1028-1050,CTAGTTCACAAAATGCTTGTCAT,1050,0.775922530996888,0.8899,0.589786333418041,4
crRNA860:960-982,ACATGAATGTGCGCTTAGGGCGT,982,0.775327484203193,0.8889,0.58945587212793,4
crRNA336:345-367,CCCATCATCATGACCTGGTCTTC,367,0.770673500737927,0.8879,0.58687126635174,4
crRNA672:702-724,TGACTGATGATCTAAGTTTCCCG,724,0.77040813183571,0.8869,0.586723892816228,4
crRNA970:1088-1110,TGGTTCTGCCATTTGCTAGCAGT,1110,0.768359179509146,0.8859,0.585586000071679,4
crRNA810:910-932,CAGTGAAAAGGCAGAAGCGGTGT,932,0.768275050924734,0.8848,0.585539278972037,4
crRNA918:1018-1040,AAATGCTTGTCATGAAGTCGACA,1040,0.767648570293466,0.8838,0.585191360791766,4
crRNA300:309-331,CTGCCCTAGACGCTGGCTCCTCA,331,0.76708308494214,0.8828,0.584877316550678,4
crRNA337:346-368,GCCCATCATCATGACCTGGTCTT,368,0.766070798133552,0.8818,0.584315139578592,3
crRNA826:926-948,CCAGAAAACTCCAACACAGTGAA,948,0.764276946249363,0.8808,0.583318917744951,3
crRNA984:1102-1124,TTTTATTTGAGCTTTGGTTCTGC,1124,0.764086937849334,0.8798,0.583213395924364,3
crRNA787:836-858,ATTTACGGTAGTGGGGGAAGGCA,858,0.764010982723361,0.8788,0.583171213983068,3
crRNA821:921-943,AAACTCCAACACAGTGAAAAGGC,943,0.763529733462769,0.8778,0.582903950545629,3
crRNA301:310-332,GCTGCCCTAGACGCTGGCTCCTC,332,0.761327075189241,0.8768,0.581680696673065,3
crRNA551:563-585,GTGCGACATCGCGATGGCCCAGC,585,0.760920452988774,0.8758,0.58145487763097,3
crRNA983:1101-1123,TTTATTTGAGCTTTGGTTCTGCC,1123,0.754223262398718,0.8747,0.577735569727861,3
crRNA559:571-593,CAGGTACCGTGCGACATCGCGAT,593,0.751952647716889,0.8737,0.576474576029461,3
crRNA239:245-267,GCTGCCCACTCCCCCGTGAGCCG,267,0.747565397997325,0.8727,0.574038101759322,3
crRNA982:1100-1122,TTATTTGAGCTTTGGTTCTGCCA,1122,0.74138526287382,0.8717,0.570605942393682,3
crRNA205:211-233,CCACGAAAACCCTCACTCGCGGC,233,0.740659742614872,0.8707,0.570203022214439,3
crRNA036:38-60,CCCACGCACCGCCCCCTGCCCAT,60,0.740116259204169,0.8697,0.569901196826994,3
crRNA971:1089-1111,TTGGTTCTGCCATTTGCTAGCAG,1111,0.738788173287432,0.8687,0.569163639730521,3
crRNA238:244-266,CTGCCCACTCCCCCGTGAGCCGC,266,0.735014952440889,0.8677,0.567068168513745,3
crRNA914:1014-1036,GCTTGTCATGAAGTCGACAGCTT,1036,0.733899886377301,0.8667,0.566448912727752,3
crRNA291:300-322,ACGCTGGCTCCTCAGTAGCATCA,322,0.732980214326508,0.8657,0.565938169680979,3
crRNA204:210-232,CACGAAAACCCTCACTCGCGGCG,232,0.72945106676549,0.8646,0.563978245405504,3
crRNA366:375-397,AGCAGCAGCAGCTCCGCCACTCG,397,0.728714459082274,0.8636,0.563569167786937,3
crRNA628:658-680,GTTCTTTCAATCGGGGATGTCTG,680,0.726089972821461,0.8626,0.5621116502861,3
crRNA286:295-317,GGCTCCTCAGTAGCATCAGCACG,317,0.726024100118253,0.8616,0.562075067653077,3
crRNA959:1077-1099,TTTGCTAGCAGTGTGACTCAAGA,1099,0.724181001855901,0.8606,0.561051496673396,3
crRNA789:838-860,ACATTTACGGTAGTGGGGGAAGG,860,0.718363445548766,0.8596,0.55782069670452,3
crRNA454:463-485,CAGCGTGTCCAGGAAGCCCTCCC,485,0.717223648711607,0.8586,0.55718770659809,3
crRNA500:512-534,CCCAGGCATCGCGCACGTCCAGC,534,0.715896754989541,0.8576,0.556450811591041,3
crRNA049:51-73,CTGCAGACTGGGACCCACGCACC,73,0.715151500052166,0.8566,0.556036931690038,3
crRNA299:308-330,TGCCCTAGACGCTGGCTCCTCAG,330,0.715144243665034,0.8556,0.556032901830406,3
crRNA029:31-53,ACCGCCCCCTGCCCATCTCCGCC,53,0.71494435634324,0.8545,0.555921893716529,3
crRNA031:33-55,GCACCGCCCCCTGCCCATCTCCG,55,0.714797122875388,0.8535,0.555840127102122,3
crRNA064:66-88,CTCCTGCCCCCTTAACTGCAGAC,88,0.713818237174734,0.8525,0.55529649955058,3
crRNA335:344-366,CCATCATCATGACCTGGTCTTCT,366,0.713468101464427,0.8515,0.555102050475703,3
crRNA960:1078-1100,ATTTGCTAGCAGTGTGACTCAAG,1100,0.712460150102006,0.8505,0.554542281208607,3
crRNA237:243-265,TGCCCACTCCCCCGTGAGCCGCG,265,0.71216265401843,0.8495,0.554377065732071,3
crRNA786:835-857,TTTACGGTAGTGGGGGAAGGCAT,857,0.711052291267623,0.8485,0.55376042194706,3
crRNA766:815-837,CATATATCTACGTTAAAAGGCAG,837,0.710750533440749,0.8475,0.553592839696678,3
crRNA024:26-48,CCCCTGCCCATCTCCGCCCCGCA,48,0.708899664467083,0.8465,0.552564953225655,3
crRNA055:57-79,CCTTAACTGCAGACTGGGACCCA,79,0.707090925292602,0.8455,0.551560463683981,3
crRNA074:76-98,AGCAGCGCCACTCCTGCCCCCTT,98,0.705761074536863,0.8444,0.550821926478079,3
crRNA151:153-175,GAACCTGCGCACCATGTTCTCGC,175,0.704300935901299,0.8434,0.550011033448552,3
crRNA150:152-174,AACCTGCGCACCATGTTCTCGCC,174,0.703689029672769,0.8424,0.549671209213132,3
crRNA339:348-370,CTGCCCATCATCATGACCTGGTC,370,0.703482660422957,0.8414,0.549556601338163,3
crRNA533:545-567,CCAGCTCCTCAGCCAGGTCCACG,567,0.703001286163217,0.8404,0.549289268482016,3
crRNA303:312-334,CTGCTGCCCTAGACGCTGGCTCC,334,0.702802791871238,0.8394,0.549179033992053,3
crRNA501:513-535,CCCCAGGCATCGCGCACGTCCAG,535,0.700740463321443,0.8384,0.548033712715777,3
crRNA037:39-61,ACCCACGCACCGCCCCCTGCCCA,61,0.699834850513775,0.8374,0.547530777518186,3
crRNA103:105-127,CGCTGCGCCGCCCTTTGGCACCA,127,0.699309388309449,0.8364,0.547238960269885,3
crRNA534:546-568,CCCAGCTCCTCAGCCAGGTCCAC,568,0.697672796458991,0.8354,0.546330073338609,3
crRNA952:1070-1092,GCAGTGTGACTCAAGAGAAGCCA,1092,0.697606117152241,0.8343,0.546293042755525,3
crRNA073:75-97,GCAGCGCCACTCCTGCCCCCTTA,97,0.696482015647222,0.8333,0.545668769105957,3
crRNA453:462-484,AGCGTGTCCAGGAAGCCCTCCCG,484,0.695441882141615,0.8323,0.545091127374596,3
crRNA762:811-833,TATCTACGTTAAAAGGCAGGACA,833,0.695380027444795,0.8313,0.545056776155285,3
crRNA731:761-783,AAACTACGAAAGCGGGGTGGGTT,783,0.692109898421394,0.8303,0.543240698718429,3
crRNA284:293-315,CTCCTCAGTAGCATCAGCACGAG,315,0.691222612227708,0.8293,0.542747941269149,3
crRNA735:765-787,ATGAAAACTACGAAAGCGGGGTG,787,0.681846753874749,0.8283,0.537541025981063,3
crRNA304:313-335,GCTGCTGCCCTAGACGCTGGCTC,335,0.681034134475853,0.8273,0.53708973499391,3
crRNA589:619-641,ATCTATGCGGGCATGGTTACTGC,641,0.680814088807528,0.8263,0.53696753187273,3
crRNA288:297-319,CTGGCTCCTCAGTAGCATCAGCA,319,0.678717412889093,0.8253,0.535803135666763,3
crRNA790:839-861,GACATTTACGGTAGTGGGGGAAG,861,0.678229306943799,0.8242,0.535532064345816,3
crRNA502:514-536,GCCCCAGGCATCGCGCACGTCCA,536,0.677203989988825,0.8232,0.534962651036973,3
crRNA763:812-834,ATATCTACGTTAAAAGGCAGGAC,834,0.675391183490923,0.8222,0.533955902693203,3
crRNA809:909-931,AGTGAAAAGGCAGAAGCGGTGTT,931,0.675081846311418,0.8212,0.533784111223185,3
crRNA062:64-86,CCTGCCCCCTTAACTGCAGACTG,86,0.672323601681378,0.8202,0.53225231055046,3
crRNA791:840-862,GGACATTTACGGTAGTGGGGGAA,862,0.667876437694839,0.8192,0.52978256268542,3
crRNA732:762-784,AAAACTACGAAAGCGGGGTGGGT,784,0.666513745471464,0.8182,0.529025786857145,3
crRNA981:1099-1121,TATTTGAGCTTTGGTTCTGCCAT,1121,0.665418635198205,0.8172,0.528417613588169,3
crRNA636:666-688,CCTCTCTGGTTCTTTCAATCGGG,688,0.664018860048437,0.8162,0.527640243628765,3
crRNA822:922-944,AAAACTCCAACACAGTGAAAAGG,944,0.663605943585019,0.8152,0.527410929046022,3
crRNA276:285-307,TAGCATCAGCACGAGGGCCACAG,307,0.662958468274797,0.8141,0.527051351398351,3
crRNA343:352-374,GGCGCTGCCCATCATCATGACCT,374,0.662344882382862,0.8131,0.526710594356062,3
crRNA798:847-869,TATAAATGGACATTTACGGTAGT,869,0.661922093174681,0.8121,0.526475796910448,3
crRNA072:74-96,CAGCGCCACTCCTGCCCCCTTAA,96,0.65954384275405,0.8111,0.525155027333103,3
crRNA736:766-788,AATGAAAACTACGAAAGCGGGGT,788,0.658828555211498,0.8101,0.524757789928219,3
crRNA048:50-72,TGCAGACTGGGACCCACGCACCG,72,0.657051707253713,0.8091,0.523771011283779,3
crRNA275:284-306,AGCATCAGCACGAGGGCCACAGC,306,0.656033738813072,0.8081,0.523205678997729,3
crRNA793:842-864,ATGGACATTTACGGTAGTGGGGG,864,0.655265648727349,0.8071,0.522779117518297,3
crRNA730:760-782,AACTACGAAAGCGGGGTGGGTTG,782,0.655248975450805,0.8061,0.522769857956636,3
crRNA460:469-491,CACCACCAGCGTGTCCAGGAAGC,491,0.655146356352172,0.8051,0.522712868086119,3
crRNA278:287-309,AGTAGCATCAGCACGAGGGCCAC,309,0.654861859783202,0.804,0.522554871934875,3
crRNA668:698-720,TGATGATCTAAGTTTCCCGAGGT,720,0.654000485032909,0.803,0.522076504495092,3
crRNA862:962-984,CCACATGAATGTGCGCTTAGGGC,984,0.653191689946642,0.802,0.521627337353154,3
crRNA334:343-365,CATCATCATGACCTGGTCTTCTA,365,0.653156237164117,0.801,0.521607648528048,3
crRNA527:539-561,CCTCAGCCAGGTCCACGGGCAGA,561,0.651230091824834,0.8,0.520537957067636,3
crRNA799:848-870,ATATAAATGGACATTTACGGTAG,870,0.650954246666984,0.799,0.520384765507409,3
crRNA828:928-950,CTCCAGAAAACTCCAACACAGTG,950,0.650029468469255,0.798,0.519871186744317,3
crRNA560:572-594,GCAGGTACCGTGCGACATCGCGA,594,0.649755855649505,0.797,0.519719234920757,3
crRNA870:970-992,AGAAATGCCCACATGAATGTGCG,992,0.645948998052538,0.796,0.517605083418568,3
crRNA802:851-873,ATGATATAAATGGACATTTACGG,873,0.645590953986322,0.7949,0.51740624241095,3
crRNA558:570-592,AGGTACCGTGCGACATCGCGATG,592,0.644728877618081,0.7939,0.516927485325218,3
crRNA734:764-786,TGAAAACTACGAAAGCGGGGTGG,786,0.644541435039609,0.7929,0.516823388442486,3
crRNA365:374-396,GCAGCAGCAGCTCCGCCACTCGG,396,0.64248598118345,0.7919,0.515681885051043,3
crRNA859:959-981,CATGAATGTGCGCTTAGGGCGTG,981,0.641718505317484,0.7909,0.515255664680673,3
crRNA202:208-230,CGAAAACCCTCACTCGCGGCGGG,230,0.640332344946941,0.7899,0.514485855735891,3
crRNA203:209-231,ACGAAAACCCTCACTCGCGGCGG,231,0.638982623283017,0.7889,0.513736283152562,3
crRNA499:511-533,CCAGGCATCGCGCACGTCCAGCC,533,0.636978166432941,0.7879,0.512623101124415,3
crRNA298:307-329,GCCCTAGACGCTGGCTCCTCAGT,329,0.636017628058864,0.7869,0.512089662823995,3
crRNA864:964-986,GCCCACATGAATGTGCGCTTAGG,986,0.635322412538756,0.7859,0.511703572486034,3
crRNA065:67-89,ACTCCTGCCCCCTTAACTGCAGA,89,0.63434080176762,0.7848,0.511158431557197,3
crRNA688:718-740,CCTGTAGGACCTTCGGTGACTGA,740,0.633420112899639,0.7838,0.510647123817491,3
crRNA161:163-185,GGGTCACCAAGAACCTGCGCACC,185,0.632117626970466,0.7828,0.509923783762445,3
crRNA733:763-785,GAAAACTACGAAAGCGGGGTGGG,785,0.632009467968255,0.7818,0.50986371728736,3
crRNA085:87-109,CACCAGAGGTGAGCAGCGCCACT,109,0.631786072255146,0.7808,0.50973965370725,3
crRNA236:242-264,GCCCACTCCCCCGTGAGCCGCGG,264,0.630943237738887,0.7798,0.509271582650411,3
crRNA549:561-583,GCGACATCGCGATGGCCCAGCTC,583,0.630051422640281,0.7788,0.508776310058157,3
crRNA038:40-62,GACCCACGCACCGCCCCCTGCCC,62,0.629539610660835,0.7778,0.508492073509344,3
crRNA287:296-318,TGGCTCCTCAGTAGCATCAGCAC,318,0.628712248545574,0.7768,0.508032595103788,3
crRNA084:86-108,ACCAGAGGTGAGCAGCGCCACTC,108,0.627096563672375,0.7758,0.507135318934472,3
crRNA461:470-492,GCACCACCAGCGTGTCCAGGAAG,492,0.625195604647608,0.7747,0.506079614780734,3
crRNA969:1087-1109,GGTTCTGCCATTTGCTAGCAGTG,1109,0.625159661986867,0.7737,0.506059653900069,3
crRNA014:16-38,TCTCCGCCCCGCAGGCGCGCACC,38,0.624925717478065,0.7727,0.505929732009872,3
crRNA493:505-527,ATCGCGCACGTCCAGCCGCGCCC,527,0.624670390091555,0.7717,0.505787935064756,3
crRNA183:185-207,CCGCACGCGCGCCGAATCCGGAG,207,0.623393643143978,0.7707,0.505078889241953,3
crRNA492:504-526,TCGCGCACGTCCAGCCGCGCCCC,526,0.622882900710688,0.7697,0.504795246669289,3
crRNA184:186-208,GCCGCACGCGCGCCGAATCCGGA,208,0.621398218469144,0.7687,0.503970723263492,3
crRNA980:1098-1120,ATTTGAGCTTTGGTTCTGCCATT,1120,0.62083471652797,0.7677,0.503657780516075,3
crRNA246:252-274,CCCTGGCGCTGCCCACTCCCCCG,274,0.62077924551968,0.7667,0.503626974500216,3
crRNA689:719-741,CCCTGTAGGACCTTCGGTGACTG,741,0.620151972106605,0.7657,0.503278616045833,3
crRNA104:106-128,CCGCTGCGCCGCCCTTTGGCACC,128,0.620127589242904,0.7646,0.503265074938343,3
crRNA495:507-529,GCATCGCGCACGTCCAGCCGCGC,529,0.619357336365658,0.7636,0.502837312345176,3
crRNA015:17-39,ATCTCCGCCCCGCAGGCGCGCAC,39,0.618815977399128,0.7626,0.502536666775134,3
crRNA013:15-37,CTCCGCCCCGCAGGCGCGCACCC,37,0.618227944630076,0.7616,0.50221010074781,3
crRNA858:958-980,ATGAATGTGCGCTTAGGGCGTGA,980,0.618090667211071,0.7606,0.502133863259484,3
crRNA245:251-273,CCTGGCGCTGCCCACTCCCCCGT,273,0.616852830056718,0.7596,0.501446426124608,3
crRNA834:934-956,TGCTCACTCCAGAAAACTCCAAC,956,0.616204426620595,0.7586,0.501086333039016,3
crRNA216:222-244,CGGGATGTGAACCACGAAAACCC,244,0.615652818840114,0.7576,0.500779995754781,3
crRNA924:1024-1046,TTCACAAAATGCTTGTCATGAAG,1046,0.614642328929068,0.7566,0.500218816695946,3
crRNA861:961-983,CACATGAATGTGCGCTTAGGGCG,983,0.612126720840231,0.7556,0.498821765063605,3
crRNA290:299-321,CGCTGGCTCCTCAGTAGCATCAG,321,0.608775603518788,0.7545,0.496960710495978,3
crRNA491:503-525,CGCGCACGTCCAGCCGCGCCCCG,525,0.604694083344655,0.7535,0.494694024183826,3
crRNA729:759-781,ACTACGAAAGCGGGGTGGGTTGT,781,0.604498021897114,0.7525,0.494585140782417,3
crRNA630:660-682,TGGTTCTTTCAATCGGGGATGTC,682,0.603918636235826,0.7515,0.494263376956227,3
crRNA967:1085-1107,TTCTGCCATTTGCTAGCAGTGTG,1107,0.600833469528169,0.7505,0.49255001897964,3
crRNA462:471-493,AGCACCACCAGCGTGTCCAGGAA,493,0.600474453726859,0.7495,0.492350638315584,3
crRNA489:501-523,CGCACGTCCAGCCGCGCCCCGGC,523,0.600242130116845,0.7485,0.492221616597121,3
crRNA101:103-125,CTGCGCCGCCCTTTGGCACCAGA,125,0.599841994145752,0.7475,0.491999399704889,3
crRNA922:1022-1044,CACAAAATGCTTGTCATGAAGTC,1044,0.5994624832655,0.7465,0.491788637028024,3
crRNA023:25-47,CCCTGCCCATCTCCGCCCCGCAG,47,0.599388294630684,0.7455,0.491747436113688,3
crRNA247:253-275,CCCCTGGCGCTGCCCACTCCCCC,275,0.599302646891889,0.7444,0.491699871346417,3
crRNA947:1065-1087,GTGACTCAAGAGAAGCCAGTAAC,1087,0.597963549323634,0.7434,0.490956198891278,3
crRNA494:506-528,CATCGCGCACGTCCAGCCGCGCC,528,0.597026293490354,0.7424,0.490435690630227,3
crRNA946:1064-1086,TGACTCAAGAGAAGCCAGTAACC,1086,0.596108336870213,0.7414,0.489925900253787,3
crRNA497:509-531,AGGCATCGCGCACGTCCAGCCGC,531,0.595693764685188,0.7404,0.489695666160335,3
crRNA498:510-532,CAGGCATCGCGCACGTCCAGCCG,532,0.595621418055186,0.7394,0.489655488209728,3
crRNA507:519-541,AGACGGCCCCAGGCATCGCGCAC,541,0.594419950077687,0.7384,0.488988248822712,3
crRNA505:517-539,ACGGCCCCAGGCATCGCGCACGT,539,0.593758408167238,0.7374,0.488620859240067,3
crRNA880:980-1002,GAGGCTCGCAAGAAATGCCCACA,1002,0.591065439245755,0.7364,0.487125309657326,3
crRNA332:341-363,TCATCATGACCTGGTCTTCTAGG,363,0.590064565043614,0.7354,0.486569470715611,3
crRNA056:58-80,CCCTTAACTGCAGACTGGGACCC,80,0.589743796399353,0.7343,0.486391330742195,3
crRNA881:981-1003,CGAGGCTCGCAAGAAATGCCCAC,1003,0.58871964019369,0.7333,0.485822562059489,3
crRNA039:41-63,GGACCCACGCACCGCCCCCTGCC,63,0.586187114121765,0.7323,0.484416114966864,3
crRNA785:834-856,TTACGGTAGTGGGGGAAGGCATA,856,0.585646626325554,0.7313,0.484115953204263,3
crRNA028:30-52,CCGCCCCCTGCCCATCTCCGCCC,52,0.58562665232076,0.7303,0.48410486057178,3
crRNA667:697-719,GATGATCTAAGTTTCCCGAGGTT,719,0.584846985956148,0.7293,0.483671870165923,3
crRNA635:665-687,CTCTCTGGTTCTTTCAATCGGGG,687,0.583782203514177,0.7283,0.4830805395627,3
crRNA578:608-630,CATGGTTACTGCCTCTGGTGCCC,630,0.582779836341647,0.7273,0.482523871494728,3
crRNA876:976-998,CTCGCAAGAAATGCCCACATGAA,998,0.582475863996807,0.7263,0.482355059404152,3
crRNA086:88-110,GCACCAGAGGTGAGCAGCGCCAC,110,0.582447803741249,0.7253,0.482339476044405,3
crRNA224:230-252,GTGAGCCGCGGGATGTGAACCAC,252,0.581626180236048,0.7242,0.481883184595747,3
crRNA576:606-628,TGGTTACTGCCTCTGGTGCCCCC,628,0.581579611588707,0.7232,0.48185732253676,3
crRNA277:286-308,GTAGCATCAGCACGAGGGCCACA,308,0.581221302060587,0.7222,0.481658334103957,3
crRNA535:547-569,GCCCAGCTCCTCAGCCAGGTCCA,569,0.581137698556795,0.7212,0.481611904609649,3
crRNA297:306-328,CCCTAGACGCTGGCTCCTCAGTA,328,0.580016151734096,0.7202,0.480989049711721,3
crRNA577:607-629,ATGGTTACTGCCTCTGGTGCCCC,629,0.57880655740049,0.7192,0.4803172973248,3
crRNA249:255-277,CGCCCCTGGCGCTGCCCACTCCC,277,0.577913034585639,0.7182,0.479821076346437,3
crRNA504:516-538,CGGCCCCAGGCATCGCGCACGTC,538,0.577731514487534,0.7172,0.479720268533612,3
crRNA289:298-320,GCTGGCTCCTCAGTAGCATCAGC,320,0.577675679880961,0.7162,0.479689260592192,3
crRNA201:207-229,GAAAACCCTCACTCGCGGCGGGC,229,0.577279300218449,0.7152,0.479469129778892,3
crRNA338:347-369,TGCCCATCATCATGACCTGGTCT,369,0.577087190418416,0.7141,0.479362440938561,3
crRNA528:540-562,TCCTCAGCCAGGTCCACGGGCAG,562,0.576988881088584,0.7131,0.479307844513019,3
crRNA871:971-993,AAGAAATGCCCACATGAATGTGC,993,0.574555701438273,0.7121,0.477956569798436,3
crRNA590:620-642,CATCTATGCGGGCATGGTTACTG,642,0.574312852705557,0.7111,0.477821702916763,3
crRNA025:27-49,CCCCCTGCCCATCTCCGCCCCGC,49,0.573506185140032,0.7101,0.47737371730081,3
crRNA540:552-574,CGATGGCCCAGCTCCTCAGCCAG,574,0.573162886256276,0.7091,0.47718306508115,3
crRNA727:757-779,TACGAAAGCGGGGTGGGTTGTGG,779,0.573034568483047,0.7081,0.477111803363021,3
crRNA012:14-36,TCCGCCCCGCAGGCGCGCACCCG,36,0.572929461157023,0.7071,0.477053431646837,3
crRNA018:20-42,CCCATCTCCGCCCCGCAGGCGCG,42,0.571883979007992,0.7061,0.476472819527895,3
crRNA487:499-521,CACGTCCAGCCGCGCCCCGGCCC,521,0.571593657955838,0.7051,0.476311588729817,3
crRNA627:657-679,TTCTTTCAATCGGGGATGTCTGA,679,0.571076348820516,0.704,0.47602429931652,3
crRNA438:447-469,CCCTCCCGGGCAGCGTCGTGCAC,469,0.56984083677738,0.703,0.475338153440181,3
crRNA273:282-304,CATCAGCACGAGGGCCACAGCGG,304,0.569503552128814,0.702,0.475150841246786,3
crRNA619:649-671,ATCGGGGATGTCTGAGGGACCTT,671,0.569369517752858,0.701,0.475076404793608,3
crRNA624:654-676,TTTCAATCGGGGATGTCTGAGGG,676,0.567689595204365,0.7,0.474143454009663,3
crRNA248:254-276,GCCCCTGGCGCTGCCCACTCCCC,276,0.567017946227238,0.699,0.473770451432664,3
crRNA658:688-710,AGTTTCCCGAGGTTTCTCAGAGC,710,0.564473852990617,0.698,0.472357580475212,3
crRNA526:538-560,CTCAGCCAGGTCCACGGGCAGAC,560,0.563916153656794,0.697,0.47204786022581,3
crRNA629:659-681,GGTTCTTTCAATCGGGGATGTCT,681,0.561696683188249,0.696,0.470815269642732,3
crRNA076:78-100,TGAGCAGCGCCACTCCTGCCCCC,100,0.560850948515015,0.6949,0.470345587973711,3
crRNA063:65-87,TCCTGCCCCCTTAACTGCAGACT,87,0.560375338330478,0.6939,0.470081456216617,3
crRNA377:386-408,CCGCGCCGTGGAGCAGCAGCAGC,408,0.560248408384795,0.6929,0.470010965233305,3
crRNA948:1066-1088,TGTGACTCAAGAGAAGCCAGTAA,1088,0.559702002419133,0.6919,0.469707516794879,3
crRNA927:1027-1049,TAGTTCACAAAATGCTTGTCATG,1049,0.559131786297887,0.6909,0.469390845304392,3
crRNA102:104-126,GCTGCGCCGCCCTTTGGCACCAG,126,0.558185118933093,0.6899,0.46886511031684,3
crRNA075:77-99,GAGCAGCGCCACTCCTGCCCCCT,99,0.557059608068019,0.6889,0.468240053974301,3
crRNA508:520-542,CAGACGGCCCCAGGCATCGCGCA,542,0.555461416860782,0.6879,0.46735249297274,3
crRNA488:500-522,GCACGTCCAGCCGCGCCCCGGCC,522,0.554328282275396,0.6869,0.46672320277082,3
crRNA026:28-50,GCCCCCTGCCCATCTCCGCCCCG,50,0.553619474439945,0.6859,0.466329563893633,3
crRNA470:479-501,CCCGGTGCAGCACCACCAGCGTG,501,0.553569250075122,0.6848,0.466301671619327,3
crRNA740:770-792,TCTAAATGAAAACTACGAAAGCG,792,0.552273550588404,0.6838,0.465582100438516,3
crRNA016:18-40,CATCTCCGCCCCGCAGGCGCGCA,40,0.552219782697209,0.6828,0.465552240254612,3
crRNA561:573-595,CGCAGGTACCGTGCGACATCGCG,595,0.550941298794368,0.6818,0.464842229807711,3
crRNA027:29-51,CGCCCCCTGCCCATCTCCGCCCC,51,0.550306948865685,0.6808,0.464489941385967,3
crRNA047:49-71,GCAGACTGGGACCCACGCACCGC,71,0.54942712217496,0.6798,0.464001326597396,3
crRNA808:908-930,GTGAAAAGGCAGAAGCGGTGTTT,930,0.54934843041184,0.6788,0.463957624855218,3
crRNA620:650-672,AATCGGGGATGTCTGAGGGACCT,672,0.549171831538724,0.6778,0.463859550061672,3
crRNA656:686-708,TTTCCCGAGGTTTCTCAGAGCCT,708,0.54827140154702,0.6768,0.463359493158809,3
crRNA553:565-587,CCGTGCGACATCGCGATGGCCCA,587,0.548235974123149,0.6758,0.463339818416719,3
crRNA199:205-227,AAACCCTCACTCGCGGCGGGCCG,227,0.547872313557745,0.6747,0.463137858266897,3
crRNA625:655-677,CTTTCAATCGGGGATGTCTGAGG,677,0.545376496332809,0.6737,0.461751797559112,3
crRNA017:19-41,CCATCTCCGCCCCGCAGGCGCGC,41,0.544451406522902,0.6727,0.461238045741121,3
crRNA100:102-124,TGCGCCGCCCTTTGGCACCAGAG,124,0.544187982109833,0.6717,0.461091752084367,3
crRNA573:585-607,CCCGCAGCCGCGCGCAGGTACCG,607,0.543584133398871,0.6707,0.460756402619131,3
crRNA593:623-645,CGGCATCTATGCGGGCATGGTTA,645,0.54285809058953,0.6697,0.460353192239724,3
crRNA318:327-349,TCTTCTAGGAAGCGGCTGCTGCC,349,0.54246239700557,0.6687,0.460133442442515,3
crRNA321:330-352,TGGTCTTCTAGGAAGCGGCTGCT,352,0.541872954399101,0.6677,0.459806093457117,3
crRNA367:376-398,GAGCAGCAGCAGCTCCGCCACTC,398,0.540937205807827,0.6667,0.459286422248116,3
crRNA968:1086-1108,GTTCTGCCATTTGCTAGCAGTGT,1108,0.540679916614234,0.6657,0.459143535806667,3
crRNA173:175-197,GCCGAATCCGGAGGGTCACCAAG,197,0.539935327478089,0.6646,0.458730025660675,3
crRNA486:498-520,ACGTCCAGCCGCGCCCCGGCCCG,520,0.539833875160543,0.6636,0.45867368376606,3
crRNA083:85-107,CCAGAGGTGAGCAGCGCCACTCC,107,0.539699016356151,0.6626,0.458598789463706,3
crRNA623:653-675,TTCAATCGGGGATGTCTGAGGGA,675,0.539026199335799,0.6616,0.458225138209871,3
crRNA608:638-660,CTGAGGGACCTTCCGCGGCATCT,660,0.538494486788778,0.6606,0.457929849812188,3
crRNA571:583-605,CGCAGCCGCGCGCAGGTACCGTG,605,0.537898567388235,0.6596,0.457598903916853,3
crRNA911:1011-1033,TGTCATGAAGTCGACAGCTTCCG,1033,0.537344138288849,0.6586,0.457290999803429,3
crRNA019:21-43,GCCCATCTCCGCCCCGCAGGCGC,43,0.536617007146236,0.6576,0.456887185014384,3
crRNA022:24-46,CCTGCCCATCTCCGCCCCGCAGG,46,0.535017667775735,0.6566,0.455998986376392,3
crRNA223:229-251,TGAGCCGCGGGATGTGAACCACG,251,0.534502742599631,0.6556,0.455713020903073,3
crRNA609:639-661,TCTGAGGGACCTTCCGCGGCATC,661,0.534489648706513,0.6545,0.455705749164349,3
crRNA172:174-196,CCGAATCCGGAGGGTCACCAAGA,196,0.534060670079176,0.6535,0.45546751440345,3
crRNA687:717-739,CTGTAGGACCTTCGGTGACTGAT,739,0.532807409873599,0.6525,0.454771512023859,3
crRNA659:689-711,AAGTTTCCCGAGGTTTCTCAGAG,711,0.531043813439429,0.6515,0.453792092658783,3
crRNA354:363-385,TCCGCCACTCGGGCGCTGCCCAT,385,0.530655778631697,0.6505,0.45357659618938,3
crRNA244:250-272,CTGGCGCTGCCCACTCCCCCGTG,272,0.53065404400791,0.6495,0.453575632860074,3
crRNA198:204-226,AACCCTCACTCGCGGCGGGCCGC,226,0.52872377473655,0.6485,0.452503651159753,3
crRNA319:328-350,GTCTTCTAGGAAGCGGCTGCTGC,350,0.528648788885821,0.6475,0.45246200750881,3
crRNA530:542-564,GCTCCTCAGCCAGGTCCACGGGC,564,0.52818116078008,0.6465,0.452202308626717,3
crRNA978:1096-1118,TTGAGCTTTGGTTCTGCCATTTG,1118,0.527644999330192,0.6455,0.451904549515475,3
crRNA077:79-101,GTGAGCAGCGCCACTCCTGCCCC,101,0.526737514505054,0.6444,0.451400574686523,3
crRNA907:1007-1029,ATGAAGTCGACAGCTTCCGGAGG,1029,0.525886498978235,0.6434,0.450927960277241,3
crRNA696:726-748,GTTGTGGCCCTGTAGGACCTTCG,748,0.525727587450673,0.6424,0.450839708212079,3
crRNA542:554-576,CGCGATGGCCCAGCTCCTCAGCC,576,0.525288898635472,0.6414,0.450596080864844,3
crRNA606:636-658,GAGGGACCTTCCGCGGCATCTAT,658,0.524329381293286,0.6404,0.450063209598008,3
crRNA699:729-751,GCAGTTGTGGCCCTGTAGGACCT,751,0.523654078913924,0.6394,0.449688178091472,3
crRNA602:632-654,GACCTTCCGCGGCATCTATGCGG,654,0.522056681459519,0.6384,0.448801057903285,3
crRNA060:62-84,TGCCCCCTTAACTGCAGACTGGG,84,0.521763761764239,0.6374,0.44863838393978,3
crRNA459:468-490,ACCACCAGCGTGTCCAGGAAGCC,490,0.521705077215173,0.6364,0.448605793272963,3
crRNA162:164-186,AGGGTCACCAAGAACCTGCGCAC,186,0.521330676702067,0.6354,0.448397868656126,3
crRNA136:138-160,GTTCTCGCCGCCTCCAGGGCCGA,160,0.520221042047436,0.6343,0.447781629221838,3
crRNA066:68-90,CACTCCTGCCCCCTTAACTGCAG,90,0.520110339827188,0.6333,0.447720150361841,3
crRNA543:555-577,TCGCGATGGCCCAGCTCCTCAGC,577,0.519873809229789,0.6323,0.447588792278417,3
crRNA243:249-271,TGGCGCTGCCCACTCCCCCGTGA,271,0.51765037383603,0.6313,0.446353999760441,3
crRNA503:515-537,GGCCCCAGGCATCGCGCACGTCC,537,0.517523094578834,0.6303,0.446283314785775,3
crRNA320:329-351,GGTCTTCTAGGAAGCGGCTGCTG,351,0.516499591090704,0.6293,0.445714908592003,3
crRNA631:661-683,CTGGTTCTTTCAATCGGGGATGT,683,0.51538010353058,0.6283,0.445093197312652,3
crRNA632:662-684,TCTGGTTCTTTCAATCGGGGATG,684,0.514998858697445,0.6273,0.44488147167907,3
crRNA613:643-665,GATGTCTGAGGGACCTTCCGCGG,665,0.514360155173321,0.6263,0.444526765473076,3
crRNA603:633-655,GGACCTTCCGCGGCATCTATGCG,655,0.514274838981133,0.6253,0.444479384831357,3
crRNA175:177-199,GCGCCGAATCCGGAGGGTCACCA,199,0.512111922046875,0.6242,0.443278201448686,3
crRNA293:302-324,AGACGCTGGCTCCTCAGTAGCAT,324,0.50989544225347,0.6232,0.442047271747367,3
crRNA279:288-310,CAGTAGCATCAGCACGAGGGCCA,310,0.509893470909512,0.6222,0.442046176954698,3
crRNA626:656-678,TCTTTCAATCGGGGATGTCTGAG,678,0.509782144836596,0.6212,0.44198435163597,3
crRNA929:1029-1051,CCTAGTTCACAAAATGCTTGTCA,1051,0.509648457976557,0.6202,0.441910108176955,3
crRNA966:1084-1106,TCTGCCATTTGCTAGCAGTGTGA,1106,0.509557564220941,0.6192,0.441859630016141,3
crRNA156:158-180,ACCAAGAACCTGCGCACCATGTT,180,0.509189257905728,0.6182,0.441655089833132,3
crRNA698:728-750,CAGTTGTGGCCCTGTAGGACCTT,750,0.505678201540689,0.6172,0.439705212565768,3
crRNA137:139-161,TGTTCTCGCCGCCTCCAGGGCCG,161,0.503647061938711,0.6162,0.438577212179282,3
crRNA043:45-67,ACTGGGACCCACGCACCGCCCCC,67,0.503045513598373,0.6152,0.438243140232809,3
crRNA532:544-566,CAGCTCCTCAGCCAGGTCCACGG,566,0.502869629288226,0.6141,0.438145462274273,3
crRNA594:624-646,GCGGCATCTATGCGGGCATGGTT,646,0.500747546798196,0.6131,0.436966956441105,3
crRNA021:23-45,CTGCCCATCTCCGCCCCGCAGGC,45,0.498895467527421,0.6121,0.435938397827407,3
crRNA490:502-524,GCGCACGTCCAGCCGCGCCCCGG,524,0.498019510422423,0.6111,0.435451932026622,3
crRNA045:47-69,AGACTGGGACCCACGCACCGCCC,69,0.497775853288025,0.6101,0.435316616196286,3
crRNA364:373-395,CAGCAGCAGCTCCGCCACTCGGG,395,0.497692234435008,0.6091,0.435270178177732,3
crRNA042:44-66,CTGGGACCCACGCACCGCCCCCT,66,0.497280494839328,0.6081,0.435041517172548,3
crRNA044:46-68,GACTGGGACCCACGCACCGCCCC,68,0.496790307247458,0.6071,0.434769289801991,3
crRNA863:963-985,CCCACATGAATGTGCGCTTAGGG,985,0.496725052248743,0.6061,0.43473305021329,3
crRNA531:543-565,AGCTCCTCAGCCAGGTCCACGGG,565,0.496724340961399,0.6051,0.434732655197409,3
crRNA792:841-863,TGGACATTTACGGTAGTGGGGGA,863,0.494780171350858,0.604,0.433652953895761,3
crRNA046:48-70,CAGACTGGGACCCACGCACCGCC,70,0.493818982651413,0.603,0.433119154434904,3
crRNA964:1082-1104,TGCCATTTGCTAGCAGTGTGACT,1104,0.493684565024137,0.602,0.433044505141783,3
crRNA541:553-575,GCGATGGCCCAGCTCCTCAGCCA,575,0.493416393521148,0.601,0.432895575172261,3
crRNA040:42-64,GGGACCCACGCACCGCCCCCTGC,64,0.493260280071238,0.6,0.432808877029178,3
crRNA041:43-65,TGGGACCCACGCACCGCCCCCTG,65,0.492739399784403,0.599,0.432519604364567,3
crRNA274:283-305,GCATCAGCACGAGGGCCACAGCG,305,0.492610135250507,0.598,0.432447816859635,3
crRNA200:206-228,AAAACCCTCACTCGCGGCGGGCC,228,0.491713907725435,0.597,0.431950093811118,3
crRNA292:301-323,GACGCTGGCTCCTCAGTAGCATC,323,0.491327841307786,0.596,0.431735690493939,3
crRNA140:142-164,CCATGTTCTCGCCGCCTCCAGGG,164,0.490815860973299,0.5949,0.431451360448573,3
crRNA353:362-384,CCGCCACTCGGGCGCTGCCCATC,384,0.489670293252003,0.5939,0.430815165461724,3
crRNA309:318-340,AAGCGGCTGCTGCCCTAGACGCT,340,0.489151723493552,0.5929,0.430527175957023,3
crRNA904:1004-1026,AAGTCGACAGCTTCCGGAGGCTG,1026,0.482494766843652,0.5919,0.426830212111408,3
crRNA807:907-929,TGAAAAGGCAGAAGCGGTGTTTT,929,0.48209061353637,0.5909,0.426605764177662,3
crRNA272:281-303,ATCAGCACGAGGGCCACAGCGGC,303,0.480903833641801,0.5899,0.425946681868182,3
crRNA467:476-498,GGTGCAGCACCACCAGCGTGTCC,498,0.480397088659615,0.5889,0.425665259293782,3
crRNA363:372-394,AGCAGCAGCTCCGCCACTCGGGC,394,0.478171869968965,0.5879,0.424429476415724,3
crRNA972:1090-1112,TTTGGTTCTGCCATTTGCTAGCA,1112,0.478030801146048,0.5869,0.424351133358153,3
crRNA355:364-386,CTCCGCCACTCGGGCGCTGCCCA,386,0.477135454610823,0.5859,0.423853899570388,3
crRNA376:385-407,CGCGCCGTGGAGCAGCAGCAGCT,407,0.476848839482052,0.5848,0.423694726869648,3
crRNA788:837-859,CATTTACGGTAGTGGGGGAAGGC,859,0.476372972266265,0.5838,0.423430452369361,3
crRNA324:333-355,ACCTGGTCTTCTAGGAAGCGGCT,355,0.476275557109722,0.5828,0.423376352526041,3
crRNA476:485-507,CCCCGGCCCGGTGCAGCACCACC,507,0.475875280693485,0.5818,0.423154057637114,3
crRNA800:849-871,GATATAAATGGACATTTACGGTA,871,0.473653889950356,0.5808,0.42192040062292,3
crRNA215:221-243,GGGATGTGAACCACGAAAACCCT,243,0.47268727709033,0.5798,0.421383588835769,3
crRNA665:695-717,TGATCTAAGTTTCCCGAGGTTTC,717,0.47188629804154,0.5788,0.420938762357213,3
crRNA082:84-106,CAGAGGTGAGCAGCGCCACTCCT,106,0.471735293507889,0.5778,0.420854901468403,3
crRNA090:92-114,TTTGGCACCAGAGGTGAGCAGCG,114,0.471447650964477,0.5768,0.420695158189398,3
crRNA496:508-530,GGCATCGCGCACGTCCAGCCGCG,530,0.471327081838636,0.5758,0.420628199709333,3
crRNA011:11-33,GCCCCGCAGGCGCGCACCCGCCT,33,0.470682842901397,0.5747,0.420270419392565,3
crRNA563:575-597,CGCGCAGGTACCGTGCGACATCG,597,0.470373688006929,0.5737,0.420098729155171,3
crRNA111:113-135,TCGGCAGCCGCTGCGCCGCCCTT,135,0.470087626281509,0.5727,0.419939863788892,3
crRNA690:720-742,GCCCTGTAGGACCTTCGGTGACT,742,0.469436353452494,0.5717,0.419578177176056,3
crRNA697:727-749,AGTTGTGGCCCTGTAGGACCTTC,749,0.469168431812548,0.5707,0.419429385968838,3
crRNA469:478-500,CCGGTGCAGCACCACCAGCGTGT,500,0.468460186902049,0.5697,0.419036059713965,3
crRNA009:9-31,CCCGCAGGCGCGCACCCGCCTTC,31,0.467894913379021,0.5687,0.418722133112453,3
crRNA921:1021-1043,ACAAAATGCTTGTCATGAAGTCG,1043,0.466843822465924,0.5677,0.418138406147033,3
crRNA572:584-606,CCGCAGCCGCGCGCAGGTACCGT,606,0.466062194194375,0.5667,0.417704326189389,3
crRNA562:574-596,GCGCAGGTACCGTGCGACATCGC,596,0.466041452450466,0.5657,0.417692807190339,3
crRNA666:696-718,ATGATCTAAGTTTCCCGAGGTTT,718,0.465651624330092,0.5646,0.417476314798572,3
crRNA010:10-32,CCCCGCAGGCGCGCACCCGCCTT,32,0.465365808049691,0.5636,0.417317585741031,3
crRNA310:319-341,GAAGCGGCTGCTGCCCTAGACGC,341,0.464825166732704,0.5626,0.417017338720138,3
crRNA767:816-838,GCATATATCTACGTTAAAAGGCA,838,0.463745571960503,0.5616,0.416417782038211,3
crRNA588:618-640,TCTATGCGGGCATGGTTACTGCC,640,0.462194555509538,0.5606,0.415556419700324,3
crRNA112:114-136,CTCGGCAGCCGCTGCGCCGCCCT,136,0.461775134327215,0.5596,0.415323492699492,3
crRNA718:748-770,GGGGTGGGTTGTGGCGGGGGCAG,770,0.46169809142051,0.5586,0.415280706655414,3
crRNA612:642-664,ATGTCTGAGGGACCTTCCGCGGC,664,0.460577259767869,0.5576,0.414658248929645,3
crRNA592:622-644,GGCATCTATGCGGGCATGGTTAC,644,0.459415651784586,0.5566,0.414013145927954,3
crRNA174:176-198,CGCCGAATCCGGAGGGTCACCAA,198,0.455178050966978,0.5556,0.411659779691886,3
crRNA973:1091-1113,CTTTGGTTCTGCCATTTGCTAGC,1113,0.454460198962969,0.5545,0.411261118104483,3
crRNA002:2-24,GCGCGCACCCGCCTTCCCTGAGC,24,0.452113335952436,0.5535,0.40995777963364,3
crRNA726:756-778,ACGAAAGCGGGGTGGGTTGTGGC,778,0.452108853787415,0.5525,0.40995529044783,3
crRNA001:1-23,CGCGCACCCGCCTTCCCTGAGCG,23,0.451187665617366,0.5515,0.409443705418997,3
crRNA155:157-179,CCAAGAACCTGCGCACCATGTTC,179,0.451124860911479,0.5505,0.409408826608872,3
crRNA154:156-178,CAAGAACCTGCGCACCATGTTCT,178,0.450884671519648,0.5495,0.409275436601336,3
crRNA197:203-225,ACCCTCACTCGCGGCGGGCCGCA,225,0.450492921764913,0.5485,0.409057877023295,3
crRNA979:1097-1119,TTTGAGCTTTGGTTCTGCCATTT,1119,0.450338401535347,0.5475,0.408972063680628,3
crRNA695:725-747,TTGTGGCCCTGTAGGACCTTCGG,747,0.450220023885025,0.5465,0.408906322244055,3
crRNA683:713-735,AGGACCTTCGGTGACTGATGATC,735,0.450001905321326,0.5455,0.408785189347078,3
crRNA605:635-657,AGGGACCTTCCGCGGCATCTATG,657,0.449407847115986,0.5444,0.408455277072921,3
crRNA604:634-656,GGGACCTTCCGCGGCATCTATGC,656,0.449142422629152,0.5434,0.4083078726683,3
crRNA283:292-314,TCCTCAGTAGCATCAGCACGAGG,314,0.448780067942501,0.5424,0.408106637742749,3
crRNA352:361-383,CGCCACTCGGGCGCTGCCCATCA,383,0.446127294780973,0.5414,0.406633411013996,3
crRNA452:461-483,GCGTGTCCAGGAAGCCCTCCCGG,483,0.445486293662359,0.5404,0.406277428830973,3
crRNA633:663-685,CTCTGGTTCTTTCAATCGGGGAT,685,0.44512492557335,0.5394,0.406076741815827,3
crRNA637:667-689,GCCTCTCTGGTTCTTTCAATCGG,689,0.445004703061994,0.5384,0.406009975829313,3
crRNA437:446-468,CCTCCCGGGCAGCGTCGTGCACG,468,0.443505415883698,0.5374,0.405177341521497,3
crRNA977:1095-1117,TGAGCTTTGGTTCTGCCATTTGC,1117,0.442147016820166,0.5364,0.404422949914354,3
crRNA598:628-650,TTCCGCGGCATCTATGCGGGCAT,650,0.441333741336045,0.5354,0.403971294568009,3
crRNA196:202-224,CCCTCACTCGCGGCGGGCCGCAC,224,0.440736044662976,0.5343,0.403639361658243,3
crRNA741:771-793,TTCTAAATGAAAACTACGAAAGC,793,0.439296549670538,0.5333,0.402839933147158,3
crRNA657:687-709,GTTTCCCGAGGTTTCTCAGAGCC,709,0.439076395136438,0.5323,0.402717669566994,3
crRNA607:637-659,TGAGGGACCTTCCGCGGCATCTA,659,0.437773808904964,0.5313,0.40199427380872,3
crRNA139:141-163,CATGTTCTCGCCGCCTCCAGGGC,163,0.437154272926804,0.5303,0.401650212365515,3
crRNA214:220-242,GGATGTGAACCACGAAAACCCTC,242,0.43655559963447,0.5293,0.401317737086871,3
crRNA168:170-192,ATCCGGAGGGTCACCAAGAACCT,192,0.435752326676003,0.5283,0.400871636677662,3
crRNA295:304-326,CTAGACGCTGGCTCCTCAGTAGC,326,0.431850983722155,0.5273,0.398705012406504,3
crRNA326:335-357,TGACCTGGTCTTCTAGGAAGCGG,357,0.428185923568228,0.5263,0.396669608603585,3
crRNA323:332-354,CCTGGTCTTCTAGGAAGCGGCTG,354,0.426862639604623,0.5253,0.395934718288353,3
crRNA078:80-102,GGTGAGCAGCGCCACTCCTGCCC,102,0.426094377970414,0.5242,0.395508061538878,3
crRNA092:94-116,CCTTTGGCACCAGAGGTGAGCAG,116,0.42585578315661,0.5232,0.395375557085751,3
crRNA883:983-1005,TGCGAGGCTCGCAAGAAATGCCC,1005,0.425834936796433,0.5222,0.395363979987696,3
crRNA894:994-1016,CTTCCGGAGGCTGCGAGGCTCGC,1016,0.424921123157292,0.5212,0.394856490430048,3
crRNA079:81-103,AGGTGAGCAGCGCCACTCCTGCC,103,0.424838136137413,0.5202,0.394810403302208,3
crRNA325:334-356,GACCTGGTCTTCTAGGAAGCGGC,356,0.424092504999884,0.5192,0.394396314477152,3
crRNA610:640-662,GTCTGAGGGACCTTCCGCGGCAT,662,0.423857501388316,0.5182,0.394265804410578,3
crRNA649:679-701,AGGTTTCTCAGAGCCTCTCTGGT,701,0.423571695095669,0.5172,0.394107080899771,3
crRNA724:754-776,GAAAGCGGGGTGGGTTGTGGCGG,776,0.420833827045395,0.5162,0.392586596430929,3
crRNA294:303-325,TAGACGCTGGCTCCTCAGTAGCA,325,0.419803628536537,0.5152,0.392014472134294,3
crRNA240:246-268,CGCTGCCCACTCCCCCGTGAGCC,268,0.419636565531979,0.5141,0.391921693118255,3
crRNA882:982-1004,GCGAGGCTCGCAAGAAATGCCCA,1004,0.417539345516491,0.5131,0.390756994746113,3
crRNA673:703-725,GTGACTGATGATCTAAGTTTCCC,725,0.417283150368185,0.5121,0.39061471588649,3
crRNA601:631-653,ACCTTCCGCGGCATCTATGCGGG,653,0.416766095070275,0.5111,0.390327567442676,3
crRNA361:370-392,CAGCAGCTCCGCCACTCGGGCGC,392,0.416582635033475,0.5101,0.390225682278203,3
crRNA333:342-364,ATCATCATGACCTGGTCTTCTAG,364,0.414349386650408,0.5091,0.388985440082754,3
crRNA317:326-348,CTTCTAGGAAGCGGCTGCTGCCC,348,0.4132462340913,0.5081,0.388372800502582,3
crRNA331:340-362,CATCATGACCTGGTCTTCTAGGA,362,0.411985761610716,0.5071,0.38767279276118,3
crRNA890:990-1012,CGGAGGCTGCGAGGCTCGCAAGA,1012,0.411174934868042,0.5061,0.387222497331846,3
crRNA597:627-649,TCCGCGGCATCTATGCGGGCATG,649,0.410639246469121,0.5051,0.386925000931091,3
crRNA647:677-699,GTTTCTCAGAGCCTCTCTGGTTC,699,0.410531447720866,0.504,0.386865134524284,3
crRNA220:226-248,GCCGCGGGATGTGAACCACGAAA,248,0.408799855361656,0.503,0.385903488732668,3
crRNA942:1042-1064,CCCCCTGAGCTTCCCTAGTTCAC,1064,0.408443643566709,0.502,0.385705665283221,3
crRNA070:72-94,GCGCCACTCCTGCCCCCTTAACT,94,0.407325366726268,0.501,0.385084626381224,3
crRNA005:5-27,CAGGCGCGCACCCGCCTTCCCTG,27,0.406883310475361,0.5,0.38483912891695,3
crRNA905:1005-1027,GAAGTCGACAGCTTCCGGAGGCT,1027,0.405932378488696,0.499,0.384311025556927,3
crRNA351:360-382,GCCACTCGGGCGCTGCCCATCAT,382,0.40555868796362,0.498,0.384103495234392,3
crRNA138:140-162,ATGTTCTCGCCGCCTCCAGGGCC,162,0.40490296234549,0.497,0.383739335749756,3
crRNA538:550-572,ATGGCCCAGCTCCTCAGCCAGGT,572,0.404586030306208,0.496,0.383563326448155,3
crRNA131:133-155,CGCCGCCTCCAGGGCCGAGCTCG,155,0.404056835874963,0.4949,0.383269436494757,3
crRNA007:7-29,CGCAGGCGCGCACCCGCCTTCCC,29,0.403168741674952,0.4939,0.382776230316376,3
crRNA328:337-359,CATGACCTGGTCTTCTAGGAAGC,359,0.40125137258222,0.4929,0.38171141277477,3
crRNA759:808-830,CTACGTTAAAAGGCAGGACATTT,830,0.400825954011469,0.4919,0.381475155103579,3
crRNA241:247-269,GCGCTGCCCACTCCCCCGTGAGC,269,0.400757077461937,0.4909,0.381436904274136,3
crRNA784:833-855,TACGGTAGTGGGGGAAGGCATAT,855,0.399961296312507,0.4899,0.380994964466925,3
crRNA723:753-775,AAAGCGGGGTGGGTTGTGGCGGG,775,0.399171683318765,0.4889,0.380556450166259,3
crRNA152:154-176,AGAACCTGCGCACCATGTTCTCG,176,0.398814656535141,0.4879,0.380358174110039,3
crRNA506:518-540,GACGGCCCCAGGCATCGCGCACG,540,0.398564895182733,0.4869,0.380219468281168,3
crRNA953:1071-1093,AGCAGTGTGACTCAAGAGAAGCC,1093,0.398547948055517,0.4859,0.380210056635591,3
crRNA315:324-346,TCTAGGAAGCGGCTGCTGCCCTA,346,0.397176535229473,0.4848,0.379448437790534,3
crRNA069:71-93,CGCCACTCCTGCCCCCTTAACTG,93,0.395797649904724,0.4838,0.378682669067536,3
crRNA222:228-250,GAGCCGCGGGATGTGAACCACGA,250,0.395534899693518,0.4828,0.378536749831112,3
crRNA089:91-113,TTGGCACCAGAGGTGAGCAGCGC,113,0.393103619520647,0.4818,0.37718652999788,3
crRNA844:944-966,AGGGCGTGAGTGCTCACTCCAGA,966,0.390953338061117,0.4808,0.375992363769699,3
crRNA926:1026-1048,AGTTCACAAAATGCTTGTCATGA,1048,0.390105550134774,0.4798,0.375521541819478,3
crRNA322:331-353,CTGGTCTTCTAGGAAGCGGCTGC,353,0.388209807105759,0.4788,0.374468734386978,3
crRNA008:8-30,CCGCAGGCGCGCACCCGCCTTCC,30,0.387410195056554,0.4778,0.374024667076359,3
crRNA846:946-968,TTAGGGCGTGAGTGCTCACTCCA,968,0.386944048992805,0.4768,0.373765791251401,3
crRNA837:937-959,GAGTGCTCACTCCAGAAAACTCC,959,0.386801159624621,0.4758,0.373686437147734,3
crRNA586:616-638,TATGCGGGCATGGTTACTGCCTC,638,0.386576530149763,0.4747,0.373561688393779,3
crRNA350:359-381,CCACTCGGGCGCTGCCCATCATC,381,0.386168297158898,0.4737,0.373334974793678,3
crRNA686:716-738,TGTAGGACCTTCGGTGACTGATG,738,0.3858136769574,0.4727,0.373138035241145,3
crRNA006:6-28,GCAGGCGCGCACCCGCCTTCCCT,28,0.385756587369084,0.4717,0.373106330341284,3
crRNA585:615-637,ATGCGGGCATGGTTACTGCCTCT,637,0.385616143643513,0.4707,0.373028334433681,3
crRNA801:850-872,TGATATAAATGGACATTTACGGT,872,0.383948213952016,0.4697,0.372102043924251,3
crRNA106:108-130,AGCCGCTGCGCCGCCCTTTGGCA,130,0.383548537216266,0.4687,0.371880082069952,3
crRNA468:477-499,CGGTGCAGCACCACCAGCGTGTC,499,0.382935575508427,0.4677,0.371539671670454,3
crRNA167:169-191,TCCGGAGGGTCACCAAGAACCTG,191,0.382545084326167,0.4667,0.371322811044981,3
crRNA163:165-187,GAGGGTCACCAAGAACCTGCGCA,187,0.381365338902334,0.4657,0.370667635353097,3
crRNA954:1072-1094,TAGCAGTGTGACTCAAGAGAAGC,1094,0.380521532696597,0.4646,0.370199024665154,3
crRNA663:693-715,ATCTAAGTTTCCCGAGGTTTCTC,715,0.379500210552514,0.4636,0.369631829888325,3
crRNA685:715-737,GTAGGACCTTCGGTGACTGATGA,737,0.378792060484188,0.4626,0.369238556304381,3
crRNA745:775-797,TATTTTCTAAATGAAAACTACGA,797,0.378335023803679,0.4616,0.368984739406837,3
crRNA166:168-190,CCGGAGGGTCACCAAGAACCTGC,190,0.377173191406106,0.4606,0.368339511775896,3
crRNA539:551-573,GATGGCCCAGCTCCTCAGCCAGG,573,0.377122491018185,0.4596,0.36831135514052,3
crRNA057:59-81,CCCCTTAACTGCAGACTGGGACC,81,0.376734673849398,0.4586,0.368095979537656,3
crRNA087:89-111,GGCACCAGAGGTGAGCAGCGCCA,111,0.376667413287558,0.4576,0.368058626152553,3
crRNA004:4-26,AGGCGCGCACCCGCCTTCCCTGA,26,0.376184868357009,0.4566,0.367790643160332,3
crRNA349:358-380,CACTCGGGCGCTGCCCATCATCA,380,0.37598396212669,0.4556,0.36767906919209,3
crRNA664:694-716,GATCTAAGTTTCCCGAGGTTTCT,716,0.375608970578585,0.4545,0.367470816341926,3
crRNA221:227-249,AGCCGCGGGATGTGAACCACGAA,249,0.375245473524028,0.4535,0.367268946998417,3
crRNA329:338-360,TCATGACCTGGTCTTCTAGGAAG,360,0.375184579299243,0.4525,0.367235129180565,3
crRNA965:1083-1105,CTGCCATTTGCTAGCAGTGTGAC,1105,0.374873506976974,0.4515,0.367062374093025,3
crRNA906:1006-1028,TGAAGTCGACAGCTTCCGGAGGC,1028,0.374439422866605,0.4505,0.366821303984507,3
crRNA451:460-482,CGTGTCCAGGAAGCCCTCCCGGG,482,0.37439895730437,0.4495,0.366798831294892,3
crRNA316:325-347,TTCTAGGAAGCGGCTGCTGCCCT,347,0.373350026240936,0.4485,0.366216303809436,3
crRNA529:541-563,CTCCTCAGCCAGGTCCACGGGCA,563,0.371623745251512,0.4475,0.365257607705358,3
crRNA068:70-92,GCCACTCCTGCCCCCTTAACTGC,92,0.370823760292172,0.4465,0.364813333297809,3
crRNA071:73-95,AGCGCCACTCCTGCCCCCTTAAC,95,0.370729758489647,0.4455,0.364761129072419,3
crRNA105:107-129,GCCGCTGCGCCGCCCTTTGGCAC,129,0.369931871364678,0.4444,0.364318019704427,3
crRNA375:384-406,GCGCCGTGGAGCAGCAGCAGCTC,406,0.368520312519457,0.4434,0.363534105629094,3
crRNA107:109-131,CAGCCGCTGCGCCGCCCTTTGGC,131,0.367986572529664,0.4424,0.363237691284071,3
crRNA020:22-44,TGCCCATCTCCGCCCCGCAGGCG,44,0.367573596013169,0.4414,0.363008343350644,3
crRNA600:630-652,CCTTCCGCGGCATCTATGCGGGC,652,0.366602020785396,0.4404,0.362468775695441,3
crRNA805:854-876,AAAATGATATAAATGGACATTTA,876,0.364172206344827,0.4394,0.3611193698617,3
crRNA080:82-104,GAGGTGAGCAGCGCCACTCCTGC,104,0.360361138768308,0.4384,0.359002880332841,3
crRNA058:60-82,CCCCCTTAACTGCAGACTGGGAC,82,0.360195440230199,0.4374,0.358910859077952,3
crRNA003:3-25,GGCGCGCACCCGCCTTCCCTGAG,25,0.356816238512905,0.4364,0.357034207744184,3
crRNA681:711-733,GACCTTCGGTGACTGATGATCTA,733,0.356167255923971,0.4354,0.356673793024079,3
crRNA307:316-338,GCGGCTGCTGCCCTAGACGCTGG,338,0.355985029002327,0.4343,0.356572592674363,3
crRNA130:132-154,GCCGCCTCCAGGGCCGAGCTCGG,154,0.354472459339126,0.4333,0.355732581892722,3
crRNA169:171-193,AATCCGGAGGGTCACCAAGAACC,193,0.353876567813293,0.4323,0.355401651477704,3
crRNA296:305-327,CCTAGACGCTGGCTCCTCAGTAG,327,0.353100333879211,0.4313,0.354970567283985,3
crRNA217:223-245,GCGGGATGTGAACCACGAAAACC,245,0.352768148361204,0.4303,0.354786086910341,3
crRNA648:678-700,GGTTTCTCAGAGCCTCTCTGGTT,700,0.351863214062218,0.4293,0.354283528524887,3
crRNA955:1073-1095,CTAGCAGTGTGACTCAAGAGAAG,1095,0.350455388041078,0.4283,0.353501687486288,3
crRNA958:1076-1098,TTGCTAGCAGTGTGACTCAAGAG,1098,0.349929129319982,0.4273,0.35320942788965,3
crRNA622:652-674,TCAATCGGGGATGTCTGAGGGAC,674,0.349303813527066,0.4263,0.352862156606378,3
crRNA655:685-707,TTCCCGAGGTTTCTCAGAGCCTC,707,0.349227292662284,0.4253,0.352819660480083,3
crRNA634:664-686,TCTCTGGTTCTTTCAATCGGGGA,686,0.348818472943302,0.4242,0.352592621038497,3
crRNA153:155-177,AAGAACCTGCGCACCATGTTCTC,177,0.348021426484304,0.4232,0.352149978537253,3
crRNA884:984-1006,CTGCGAGGCTCGCAAGAAATGCC,1006,0.347918863003435,0.4222,0.352093019554253,3
crRNA242:248-270,GGCGCTGCCCACTCCCCCGTGAG,270,0.347296983546087,0.4212,0.351747656651794,3
crRNA717:747-769,GGGTGGGTTGTGGCGGGGGCAGT,769,0.347159889656657,0.4202,0.351671521087252,3
crRNA843:943-965,GGGCGTGAGTGCTCACTCCAGAA,965,0.34648203554966,0.4192,0.351295072469968,3
crRNA840:940-962,CGTGAGTGCTCACTCCAGAAAAC,962,0.344987545330743,0.4182,0.350465102170095,3
crRNA218:224-246,CGCGGGATGTGAACCACGAAAAC,246,0.344745227346195,0.4172,0.350330530041249,3
crRNA344:353-375,GGGCGCTGCCCATCATCATGACC,375,0.34395793162856,0.4162,0.349893302647865,3
crRNA485:496-518,GTCCAGCCGCGCCCCGGCCCGGT,518,0.343783660737243,0.4152,0.349796520707043,3
crRNA484:495-517,TCCAGCCGCGCCCCGGCCCGGTG,517,0.343738317335145,0.4141,0.349771339092229,3
crRNA579:609-631,GCATGGTTACTGCCTCTGGTGCC,631,0.343601758424163,0.4131,0.349695500629813,3
crRNA176:178-200,CGCGCCGAATCCGGAGGGTCACC,200,0.342389989217955,0.4121,0.349022540419888,3
crRNA473:482-504,CGGCCCGGTGCAGCACCACCAGC,504,0.341905136818645,0.4111,0.348753275966929,3
crRNA646:676-698,TTTCTCAGAGCCTCTCTGGTTCT,698,0.340451609768498,0.4101,0.347946054704177,3
crRNA857:957-979,TGAATGTGCGCTTAGGGCGTGAG,979,0.340028451475334,0.4091,0.347711052285944,3
crRNA345:354-376,CGGGCGCTGCCCATCATCATGAC,376,0.339494655251373,0.4081,0.347414606711082,3
crRNA194:200-222,CTCACTCGCGGCGGGCCGCACGC,222,0.339102673330199,0.4071,0.347196918198609,3
crRNA855:955-977,AATGTGCGCTTAGGGCGTGAGTG,977,0.338975114977506,0.4061,0.347126078227296,3
crRNA170:172-194,GAATCCGGAGGGTCACCAAGAAC,194,0.338670412698509,0.4051,0.346956860765267,3
crRNA524:536-558,CAGCCAGGTCCACGGGCAGACGG,558,0.338015624181786,0.404,0.346593221703132,3
crRNA783:832-854,ACGGTAGTGGGGGAAGGCATATA,854,0.33737479179712,0.403,0.34623733322709,3
crRNA845:945-967,TAGGGCGTGAGTGCTCACTCCAG,967,0.337052143352786,0.402,0.346058149300218,3
crRNA806:855-877,AAAAATGATATAAATGGACATTT,877,0.336403028451151,0.401,0.345697661099798,3
crRNA692:722-744,TGGCCCTGTAGGACCTTCGGTGA,744,0.335111694413938,0.4,0.344980514286432,3
crRNA885:985-1007,GCTGCGAGGCTCGCAAGAAATGC,1007,0.334457257551409,0.399,0.344617070516667,3
crRNA847:947-969,CTTAGGGCGTGAGTGCTCACTCC,969,0.334343408746695,0.398,0.344553844190129,3
crRNA621:651-673,CAATCGGGGATGTCTGAGGGACC,673,0.334110334637813,0.397,0.34442440567953,3
crRNA171:173-195,CGAATCCGGAGGGTCACCAAGAA,195,0.333943771451134,0.396,0.344331904239075,3
crRNA893:993-1015,TTCCGGAGGCTGCGAGGCTCGCA,1015,0.332185259233672,0.3949,0.343355308411291,3
crRNA617:647-669,CGGGGATGTCTGAGGGACCTTCC,669,0.330051746079101,0.3939,0.342170454519129,3
crRNA225:231-253,CGTGAGCCGCGGGATGTGAACCA,253,0.329625914544887,0.3929,0.341933967507254,3
crRNA976:1094-1116,GAGCTTTGGTTCTGCCATTTGCT,1116,0.329519061739306,0.3919,0.341874626432975,3
crRNA195:201-223,CCTCACTCGCGGCGGGCCGCACG,223,0.328849518871608,0.3909,0.341502793491114,3
crRNA716:746-768,GGTGGGTTGTGGCGGGGGCAGTT,768,0.327789433355577,0.3899,0.34091407134192,3
crRNA776:825-847,TGGGGGAAGGCATATATCTACGT,847,0.327255961726674,0.3889,0.340617806032043,3
crRNA182:184-206,CGCACGCGCGCCGAATCCGGAGG,206,0.326204230711721,0.3879,0.34003372358385,3
crRNA611:641-663,TGTCTGAGGGACCTTCCGCGGCA,663,0.325395966986952,0.3869,0.339584851535353,3
crRNA903:1003-1025,AGTCGACAGCTTCCGGAGGCTGC,1025,0.323072981569801,0.3859,0.338294773568385,3
crRNA584:614-636,TGCGGGCATGGTTACTGCCTCTG,636,0.320909148763428,0.3848,0.337093081552975,3
crRNA887:987-1009,AGGCTGCGAGGCTCGCAAGAAAT,1009,0.318174196232613,0.3838,0.335574216227924,3
crRNA728:758-780,CTACGAAAGCGGGGTGGGTTGTG,780,0.318054758912728,0.3828,0.335507886300203,3
crRNA849:949-971,CGCTTAGGGCGTGAGTGCTCACT,971,0.316212823041509,0.3818,0.334484960858449,3
crRNA427:436-458,AGCGTCGTGCACGGGTCGGGTGA,458,0.315949316844178,0.3808,0.334338621782523,3
crRNA691:721-743,GGCCCTGTAGGACCTTCGGTGAC,743,0.314707827965233,0.3798,0.333649156649794,3
crRNA135:137-159,TTCTCGCCGCCTCCAGGGCCGAG,159,0.314638487851984,0.3788,0.333610648378641,3
crRNA587:617-639,CTATGCGGGCATGGTTACTGCCT,639,0.314596097467178,0.3778,0.333587106732169,3
crRNA662:692-714,TCTAAGTTTCCCGAGGTTTCTCA,714,0.314509095808267,0.3768,0.33353879006069,3
crRNA108:110-132,GCAGCCGCTGCGCCGCCCTTTGG,132,0.313193512331454,0.3758,0.332808176237369,3
crRNA327:336-358,ATGACCTGGTCTTCTAGGAAGCG,358,0.312824755082565,0.3747,0.332603385626787,3
crRNA570:582-604,GCAGCCGCGCGCAGGTACCGTGC,604,0.311477300065683,0.3737,0.331855071833714,3
crRNA892:992-1014,TCCGGAGGCTGCGAGGCTCGCAA,1014,0.310009174450719,0.3727,0.331039743207619,3
crRNA742:772-794,TTTCTAAATGAAAACTACGAAAG,794,0.308094969182978,0.3717,0.329976682707137,3
crRNA129:131-153,CCGCCTCCAGGGCCGAGCTCGGC,153,0.308022883181605,0.3707,0.329936649497539,3
crRNA523:535-557,AGCCAGGTCCACGGGCAGACGGC,557,0.307575053422066,0.3697,0.329687945695325,3
crRNA110:112-134,CGGCAGCCGCTGCGCCGCCCTTT,134,0.306147143405381,0.3687,0.328894950940499,3
crRNA782:831-853,CGGTAGTGGGGGAAGGCATATAT,853,0.30567035081657,0.3677,0.328630162531111,3
crRNA889:989-1011,GGAGGCTGCGAGGCTCGCAAGAA,1011,0.305093272280689,0.3667,0.328309679974977,3
crRNA645:675-697,TTCTCAGAGCCTCTCTGGTTCTT,697,0.304549977316939,0.3657,0.328007959242197,3
crRNA410:419-441,GGGTGAGAGTGGCGGGGTCGGCG,441,0.304199613433216,0.3646,0.327813383450428,3
crRNA651:681-703,CGAGGTTTCTCAGAGCCTCTCTG,703,0.304173953331567,0.3636,0.327799133024436,3
crRNA186:188-210,GGGCCGCACGCGCGCCGAATCCG,210,0.303011511089749,0.3626,0.327153566714389,3
crRNA580:610-632,GGCATGGTTACTGCCTCTGGTGC,632,0.302863774864463,0.3616,0.327071520891907,3
crRNA474:483-505,CCGGCCCGGTGCAGCACCACCAG,505,0.302768967144986,0.3606,0.327018869097757,3
crRNA118:120-142,GCCGAGCTCGGCAGCCGCTGCGC,142,0.302727669180795,0.3596,0.326995934130844,3
crRNA693:723-745,GTGGCCCTGTAGGACCTTCGGTG,745,0.301448773793617,0.3586,0.326285695164695,3
crRNA219:225-247,CCGCGGGATGTGAACCACGAAAA,247,0.300996693541435,0.3576,0.326034630836725,3
crRNA618:648-670,TCGGGGATGTCTGAGGGACCTTC,670,0.298499697393382,0.3566,0.32464791540992,3
crRNA653:683-705,CCCGAGGTTTCTCAGAGCCTCTC,705,0.298095600823715,0.3556,0.324423498985604,3
crRNA441:450-472,AAGCCCTCCCGGGCAGCGTCGTG,472,0.296981202312553,0.3545,0.323804613927154,3
crRNA595:625-647,CGCGGCATCTATGCGGGCATGGT,647,0.294399150570496,0.3535,0.32237066258273,2
crRNA599:629-651,CTTCCGCGGCATCTATGCGGGCA,651,0.293242420521648,0.3525,0.32172826855876,2
crRNA725:755-777,CGAAAGCGGGGTGGGTTGTGGCG,777,0.292827809277351,0.3515,0.321498012773607,2
crRNA774:823-845,GGGGAAGGCATATATCTACGTTA,845,0.292040839436731,0.3505,0.321060966357148,2
crRNA744:774-796,ATTTTCTAAATGAAAACTACGAA,796,0.290631165659291,0.3495,0.320278099160711,2
crRNA930:1030-1052,CCCTAGTTCACAAAATGCTTGTC,1052,0.289264799669338,0.3485,0.319519283093491,2
crRNA360:369-391,AGCAGCTCCGCCACTCGGGCGCT,391,0.288429527966966,0.3475,0.319055412071441,2
crRNA346:355-377,TCGGGCGCTGCCCATCATCATGA,377,0.288293762628839,0.3465,0.318980014322448,2
crRNA768:817-839,GGCATATATCTACGTTAAAAGGC,839,0.287092383093602,0.3455,0.318312824052146,2
crRNA575:587-609,CCCCCGCAGCCGCGCGCAGGTAC,609,0.287018844754706,0.3444,0.318271984281893,2
crRNA574:586-608,CCCCGCAGCCGCGCGCAGGTACC,608,0.2858951770449,0.3434,0.317647951541993,2
crRNA712:742-764,GGTTGTGGCGGGGGCAGTTGTGG,764,0.283852260014426,0.3424,0.316513410519953,2
crRNA379:388-410,CTCCGCGCCGTGGAGCAGCAGCA,410,0.283634752036604,0.3414,0.31639261671395,2
crRNA424:433-455,GTCGTGCACGGGTCGGGTGAGAG,455,0.280177176718842,0.3404,0.31447244033073,2
crRNA374:383-405,CGCCGTGGAGCAGCAGCAGCTCC,405,0.279183842553139,0.3394,0.313920788774268,2
crRNA931:1031-1053,TCCCTAGTTCACAAAATGCTTGT,1053,0.278988948915981,0.3384,0.313812553920384,2
crRNA694:724-746,TGTGGCCCTGTAGGACCTTCGGT,746,0.277335269509211,0.3374,0.312894177355748,2
crRNA848:948-970,GCTTAGGGCGTGAGTGCTCACTC,970,0.276831821303304,0.3364,0.312614585657429,2
crRNA888:988-1010,GAGGCTGCGAGGCTCGCAAGAAA,1010,0.274580411378262,0.3354,0.311364257386978,2
crRNA957:1075-1097,TGCTAGCAGTGTGACTCAAGAGA,1097,0.272301953814986,0.3343,0.310098908117305,2
crRNA775:824-846,GGGGGAAGGCATATATCTACGTT,846,0.271887566289017,0.3333,0.309868776574897,2
crRNA660:690-712,TAAGTTTCCCGAGGTTTCTCAGA,712,0.270582420277562,0.3323,0.309143959233977,2
crRNA581:611-633,GGGCATGGTTACTGCCTCTGGTG,633,0.269565067996685,0.3313,0.308578969134378,2
crRNA596:626-648,CCGCGGCATCTATGCGGGCATGG,648,0.267629999275463,0.3303,0.307504322043016,2
crRNA271:280-302,TCAGCACGAGGGCCACAGCGGCG,302,0.267251602382087,0.3293,0.307294178022606,2
crRNA059:61-83,GCCCCCTTAACTGCAGACTGGGA,83,0.266680141064481,0.3283,0.306976815008024,2
crRNA743:773-795,TTTTCTAAATGAAAACTACGAAA,795,0.266606438936826,0.3273,0.306935884277119,2
crRNA923:1023-1045,TCACAAAATGCTTGTCATGAAGT,1045,0.266358326382234,0.3263,0.306798094113804,2
crRNA643:673-695,CTCAGAGCCTCTCTGGTTCTTTC,695,0.265997754621297,0.3253,0.3065978493422,2
crRNA652:682-704,CCGAGGTTTCTCAGAGCCTCTCT,704,0.263509113895087,0.3242,0.305215774127746,2
crRNA856:956-978,GAATGTGCGCTTAGGGCGTGAGT,978,0.26276169699238,0.3232,0.304800693571836,2
crRNA711:741-763,GTTGTGGCGGGGGCAGTTGTGGC,763,0.26274646032849,0.3222,0.30479223183797,2
crRNA423:432-454,TCGTGCACGGGTCGGGTGAGAGT,454,0.260433395743725,0.3212,0.303507663439499,2
crRNA891:991-1013,CCGGAGGCTGCGAGGCTCGCAAG,1013,0.259745355594277,0.3202,0.303125557968394,2
crRNA521:533-555,CCAGGTCCACGGGCAGACGGCCC,555,0.258345709177939,0.3192,0.302348259501545,2
crRNA854:954-976,ATGTGCGCTTAGGGCGTGAGTGC,976,0.258121138766757,0.3182,0.302223543548806,2
crRNA091:93-115,CTTTGGCACCAGAGGTGAGCAGC,115,0.256860362478807,0.3172,0.301523367086934,2
crRNA428:437-459,CAGCGTCGTGCACGGGTCGGGTG,459,0.256819569052094,0.3162,0.30150071231665,2
crRNA758:807-829,TACGTTAAAAGGCAGGACATTTT,829,0.256412053081226,0.3152,0.301274396916078,2
crRNA679:709-731,CCTTCGGTGACTGATGATCTAAG,731,0.256280398168204,0.3141,0.301201281905851,2
crRNA425:434-456,CGTCGTGCACGGGTCGGGTGAGA,456,0.255406802968496,0.3131,0.300716127797319,2
crRNA390:399-421,GCGCAGTTGGGCTCCGCGCCGTG,421,0.254814304637597,0.3121,0.300387081804814,2
crRNA429:438-460,GCAGCGTCGTGCACGGGTCGGGT,460,0.253966582913874,0.3111,0.299916296620448,2
crRNA554:566-588,ACCGTGCGACATCGCGATGGCCC,588,0.25108998920609,0.3101,0.298318770379029,2
crRNA654:684-706,TCCCGAGGTTTCTCAGAGCCTCT,706,0.249939454526388,0.3091,0.297679816974691,2
crRNA472:481-503,GGCCCGGTGCAGCACCACCAGCG,503,0.249431125176482,0.3081,0.29739751451621,2
crRNA925:1025-1047,GTTCACAAAATGCTTGTCATGAA,1047,0.248946998850426,0.3071,0.297128653290538,2
crRNA841:941-963,GCGTGAGTGCTCACTCCAGAAAA,963,0.247703764139617,0.3061,0.296438218604059,2
crRNA552:564-586,CGTGCGACATCGCGATGGCCCAG,586,0.247400854402123,0.3051,0.296269996636141,2
crRNA842:942-964,GGCGTGAGTGCTCACTCCAGAAA,964,0.247386802806471,0.304,0.296262193034009,2
crRNA067:69-91,CCACTCCTGCCCCCTTAACTGCA,91,0.246943569575541,0.303,0.296016041929819,2
crRNA522:534-556,GCCAGGTCCACGGGCAGACGGCC,556,0.245165642052959,0.302,0.295028663745343,2
crRNA305:314-336,GGCTGCTGCCCTAGACGCTGGCT,336,0.244845942396944,0.301,0.294851117438239,2
crRNA134:136-158,TCTCGCCGCCTCCAGGGCCGAGC,158,0.244594992468205,0.3,0.294711751529401,2
crRNA280:289-311,TCAGTAGCATCAGCACGAGGGCC,311,0.24159399029974,0.299,0.293045134620067,2
crRNA661:691-713,CTAAGTTTCCCGAGGTTTCTCAG,713,0.239060177484334,0.298,0.29163797293001,2
crRNA436:445-467,CTCCCGGGCAGCGTCGTGCACGG,467,0.238889895816924,0.297,0.29154340641845,2
crRNA510:522-544,GGCAGACGGCCCCAGGCATCGCG,544,0.237853681170136,0.296,0.290967941038857,2
crRNA440:449-471,AGCCCTCCCGGGCAGCGTCGTGC,471,0.237398098101742,0.2949,0.290714931409817,2
crRNA902:1002-1024,GTCGACAGCTTCCGGAGGCTGCG,1024,0.236384302790244,0.2939,0.290151916685435,2
crRNA781:830-852,GGTAGTGGGGGAAGGCATATATC,852,0.236282761081564,0.2929,0.290095525147146,2
crRNA368:377-399,GGAGCAGCAGCAGCTCCGCCACT,399,0.235642995364441,0.2919,0.289740229048605,2
crRNA700:730-752,GGCAGTTGTGGCCCTGTAGGACC,752,0.235601763711135,0.2909,0.28971733090767,2
crRNA347:356-378,CTCGGGCGCTGCCCATCATCATG,378,0.235531322445075,0.2899,0.289678211107503,2
crRNA125:127-149,CTCCAGGGCCGAGCTCGGCAGCC,149,0.234338707818141,0.2889,0.289015888459271,2
crRNA187:189-211,CGGGCCGCACGCGCGCCGAATCC,211,0.233640392662362,0.2879,0.288628076727945,2
crRNA311:320-342,GGAAGCGGCTGCTGCCCTAGACG,342,0.23210809841769,0.2869,0.287777111831925,2
crRNA582:612-634,CGGGCATGGTTACTGCCTCTGGT,634,0.228783027318987,0.2859,0.285930522123971,2
crRNA713:743-765,GGGTTGTGGCGGGGGCAGTTGTG,765,0.228591294487115,0.2848,0.285824042634209,2
crRNA348:357-379,ACTCGGGCGCTGCCCATCATCAT,379,0.228408325719568,0.2838,0.28572243029781,2
crRNA415:424-446,GGGTCGGGTGAGAGTGGCGGGGT,446,0.22678952899496,0.2828,0.284823425951077,2
crRNA941:1041-1063,CCCCTGAGCTTCCCTAGTTCACA,1063,0.22608718174686,0.2818,0.284433374983367,2
crRNA777:826-848,GTGGGGGAAGGCATATATCTACG,848,0.22475718964687,0.2808,0.283694759281448,2
crRNA525:537-559,TCAGCCAGGTCCACGGGCAGACG,559,0.223194164435682,0.2798,0.282826727837134,2
crRNA583:613-635,GCGGGCATGGTTACTGCCTCTGG,635,0.221924591091346,0.2788,0.282121665899643,2
crRNA132:134-156,TCGCCGCCTCCAGGGCCGAGCTC,156,0.2216666634322,0.2778,0.281978424884147,2
crRNA520:532-554,CAGGTCCACGGGCAGACGGCCCC,554,0.221425408198001,0.2768,0.281844442957374,2
crRNA898:998-1020,ACAGCTTCCGGAGGCTGCGAGGC,1020,0.21927052570057,0.2758,0.280647721526918,2
crRNA417:426-448,ACGGGTCGGGTGAGAGTGGCGGG,448,0.218731324906526,0.2747,0.280348274505412,2
crRNA421:430-452,GTGCACGGGTCGGGTGAGAGTGG,452,0.218444448479781,0.2737,0.280188956691941,2
crRNA825:925-947,CAGAAAACTCCAACACAGTGAAA,947,0.217561272037284,0.2727,0.279698481607165,2
crRNA099:101-123,GCGCCGCCCTTTGGCACCAGAGG,123,0.217261315461465,0.2717,0.279531899687772,2
crRNA261:270-292,GGCCACAGCGGCGGGCGCCCCTG,292,0.216860945617492,0.2707,0.27930955291343,2
crRNA519:531-553,AGGTCCACGGGCAGACGGCCCCA,553,0.216236288995734,0.2697,0.278962647703134,2
crRNA165:167-189,CGGAGGGTCACCAAGAACCTGCG,189,0.211790211744259,0.2687,0.276493503360161,2
crRNA956:1074-1096,GCTAGCAGTGTGACTCAAGAGAA,1096,0.211682185286036,0.2677,0.276433510493838,2
crRNA715:745-767,GTGGGTTGTGGCGGGGGCAGTTG,767,0.210278701982207,0.2667,0.275654081198282,2
crRNA126:128-150,CCTCCAGGGCCGAGCTCGGCAGC,150,0.208590540159617,0.2657,0.274716554705037,2
crRNA097:99-121,GCCGCCCTTTGGCACCAGAGGTG,121,0.206854471362561,0.2646,0.273752422908218,2
crRNA356:365-387,GCTCCGCCACTCGGGCGCTGCCC,387,0.206726075636873,0.2636,0.273681117898922,2
crRNA098:100-122,CGCCGCCCTTTGGCACCAGAGGT,122,0.206383591249342,0.2626,0.273490918012551,2
crRNA369:378-400,TGGAGCAGCAGCAGCTCCGCCAC,400,0.205260034913686,0.2616,0.272866947124669,2
crRNA422:431-453,CGTGCACGGGTCGGGTGAGAGTG,453,0.204307818353481,0.2606,0.272338130372298,2
crRNA650:680-702,GAGGTTTCTCAGAGCCTCTCTGG,702,0.202167716239467,0.2596,0.271149617278773,2
crRNA357:366-388,AGCTCCGCCACTCGGGCGCTGCC,388,0.201663855867389,0.2586,0.270869796682549,2
crRNA555:567-589,TACCGTGCGACATCGCGATGGCC,589,0.198988355143683,0.2576,0.269383948123718,2
crRNA803:852-874,AATGATATAAATGGACATTTACG,874,0.198398974835747,0.2566,0.269056633736026,2
crRNA477:486-508,GCCCCGGCCCGGTGCAGCACCAC,508,0.197767131662588,0.2556,0.268705737449611,2
crRNA127:129-151,GCCTCCAGGGCCGAGCTCGGCAG,151,0.195320471087191,0.2545,0.267346976056766,2
crRNA400:409-431,GGCGGGGTCGGCGCAGTTGGGCT,431,0.194270760985388,0.2535,0.266764015929663,2
crRNA710:740-762,TTGTGGCGGGGGCAGTTGTGGCC,762,0.193586101334229,0.2525,0.266383787829946,2
crRNA475:484-506,CCCGGCCCGGTGCAGCACCACCA,506,0.193386421631887,0.2515,0.266272895018248,2
crRNA312:321-343,AGGAAGCGGCTGCTGCCCTAGAC,343,0.192793684627789,0.2505,0.26594371647776,2
crRNA096:98-120,CCGCCCTTTGGCACCAGAGGTGA,120,0.19086406537391,0.2495,0.264872095766891,2
crRNA358:367-389,CAGCTCCGCCACTCGGGCGCTGC,389,0.188613325679849,0.2485,0.263622139711527,2
crRNA682:712-734,GGACCTTCGGTGACTGATGATCT,734,0.188132009929043,0.2475,0.263354839348518,2
crRNA114:116-138,AGCTCGGCAGCCGCTGCGCCGCC,138,0.187710493793101,0.2465,0.263120748907964,2
crRNA804:853-875,AAATGATATAAATGGACATTTAC,875,0.186401735502536,0.2455,0.262393925475377,2
crRNA177:179-201,GCGCGCCGAATCCGGAGGGTCAC,201,0.184817541932606,0.2444,0.261514138109993,2
crRNA270:279-301,CAGCACGAGGGCCACAGCGGCGG,301,0.184721065764724,0.2434,0.261460559737265,2
crRNA471:480-502,GCCCGGTGCAGCACCACCAGCGT,502,0.184670813103034,0.2424,0.261432651748197,2
crRNA447:456-478,TCCAGGAAGCCCTCCCGGGCAGC,478,0.184135152127757,0.2414,0.261135170577257,2
crRNA940:1040-1062,CCCTGAGCTTCCCTAGTTCACAA,1062,0.1836125970211,0.2404,0.260844967795678,2
crRNA481:490-512,CCGCGCCCCGGCCCGGTGCAGCA,512,0.183608748541364,0.2394,0.260842830529178,2
crRNA509:521-543,GCAGACGGCCCCAGGCATCGCGC,543,0.182538015884815,0.2384,0.260248195453758,2
crRNA093:95-117,CCCTTTGGCACCAGAGGTGAGCA,117,0.181757618581477,0.2374,0.259814799118557,2
crRNA614:644-666,GGATGTCTGAGGGACCTTCCGCG,666,0.181537653810096,0.2364,0.259692640923774,2
crRNA088:90-112,TGGCACCAGAGGTGAGCAGCGCC,112,0.18107980506417,0.2354,0.259438373042898,2
crRNA113:115-137,GCTCGGCAGCCGCTGCGCCGCCC,137,0.18054624455153,0.2343,0.259142058371132,2
crRNA250:256-278,GCGCCCCTGGCGCTGCCCACTCC,278,0.180409372281597,0.2333,0.259066045883741,2
crRNA124:126-148,TCCAGGGCCGAGCTCGGCAGCCG,148,0.180276143028559,0.2323,0.258992056558354,2
crRNA478:487-509,CGCCCCGGCCCGGTGCAGCACCA,509,0.180165585813121,0.2313,0.258930658227278,2
crRNA897:997-1019,CAGCTTCCGGAGGCTGCGAGGCT,1019,0.179978147808363,0.2303,0.258826563884574,2
crRNA824:924-946,AGAAAACTCCAACACAGTGAAAA,946,0.179708791965482,0.2293,0.258676976187807,2
crRNA823:923-945,GAAAACTCCAACACAGTGAAAAG,945,0.179696985751341,0.2283,0.258670419566046,2
crRNA396:405-427,GGGTCGGCGCAGTTGGGCTCCGC,427,0.179604522310117,0.2273,0.258619069674913,2
crRNA569:581-603,CAGCCGCGCGCAGGTACCGTGCG,603,0.179199351962204,0.2263,0.258394056924143,2
crRNA513:525-547,ACGGGCAGACGGCCCCAGGCATC,547,0.179106982753067,0.2253,0.258342759365126,2
crRNA714:744-766,TGGGTTGTGGCGGGGGCAGTTGT,766,0.179041553003371,0.2242,0.258306422727864,2
crRNA853:953-975,TGTGCGCTTAGGGCGTGAGTGCT,975,0.17742737407526,0.2232,0.257409982890349,2
crRNA081:83-105,AGAGGTGAGCAGCGCCACTCCTG,105,0.175988465954712,0.2222,0.256610880300593,2
crRNA235:241-263,CCCACTCCCCCGTGAGCCGCGGG,263,0.170961231702729,0.2212,0.253818988412084,2
crRNA835:935-957,GTGCTCACTCCAGAAAACTCCAA,957,0.166865322633362,0.2202,0.251544311177314,2
crRNA362:371-393,GCAGCAGCTCCGCCACTCGGGCG,393,0.166233570883635,0.2192,0.251193465663219,2
crRNA644:674-696,TCTCAGAGCCTCTCTGGTTCTTT,696,0.165262156439792,0.2182,0.250653987299926,2
crRNA395:404-426,GGTCGGCGCAGTTGGGCTCCGCG,426,0.164790703281153,0.2172,0.250392164161508,2
crRNA557:569-591,GGTACCGTGCGACATCGCGATGG,591,0.163708676890746,0.2162,0.249791257072021,2
crRNA684:714-736,TAGGACCTTCGGTGACTGATGAT,736,0.162894794467078,0.2152,0.249339264659703,2
crRNA836:936-958,AGTGCTCACTCCAGAAAACTCCA,958,0.161106623733911,0.2141,0.248346197872885,2
crRNA260:269-291,GCCACAGCGGCGGGCGCCCCTGG,291,0.160529317925274,0.2131,0.248025589100042,2
crRNA420:429-451,TGCACGGGTCGGGTGAGAGTGGC,451,0.159944007509419,0.2121,0.24770053494096,2
crRNA839:939-961,GTGAGTGCTCACTCCAGAAAACT,961,0.156877373075084,0.2111,0.245997468926308,2
crRNA269:278-300,AGCACGAGGGCCACAGCGGCGGG,300,0.155418492784775,0.2101,0.245187274723161,2
crRNA537:549-571,TGGCCCAGCTCCTCAGCCAGGTC,571,0.155141169711313,0.2091,0.245033262397399,2
crRNA615:645-667,GGGATGTCTGAGGGACCTTCCGC,667,0.153125969982327,0.2081,0.24391411427438,2
crRNA399:408-430,GCGGGGTCGGCGCAGTTGGGCTC,430,0.15086986683256,0.2071,0.242661179605384,2
crRNA591:621-643,GCATCTATGCGGGCATGGTTACT,643,0.149874940943497,0.2061,0.242108644079861,2
crRNA262:271-293,GGGCCACAGCGGCGGGCGCCCCT,293,0.149269097078316,0.2051,0.241772186598845,2
crRNA133:135-157,CTCGCCGCCTCCAGGGCCGAGCT,157,0.149235923378394,0.204,0.241753763470126,2
crRNA872:972-994,CAAGAAATGCCCACATGAATGTG,994,0.14895300978556,0.203,0.241596646430141,2
crRNA850:950-972,GCGCTTAGGGCGTGAGTGCTCAC,972,0.14811129965509,0.202,0.24112919980483,2
crRNA419:428-450,GCACGGGTCGGGTGAGAGTGGCG,450,0.147303998356121,0.201,0.240680862242823,2
crRNA418:427-449,CACGGGTCGGGTGAGAGTGGCGG,449,0.145705693625481,0.2,0.239793238195649,2
crRNA389:398-420,CGCAGTTGGGCTCCGCGCCGTGG,420,0.145138510380087,0.199,0.239478251023231,2
crRNA123:125-147,CCAGGGCCGAGCTCGGCAGCCGC,147,0.143678527632304,0.198,0.238667444566521,2
crRNA638:668-690,AGCCTCTCTGGTTCTTTCAATCG,690,0.143622527833326,0.197,0.238636344884929,2
crRNA265:274-296,CGAGGGCCACAGCGGCGGGCGCC,296,0.143535039785873,0.196,0.238587758095895,2
crRNA128:130-152,CGCCTCCAGGGCCGAGCTCGGCA,152,0.14232253693077,0.1949,0.237914390451524,2
crRNA480:489-511,CGCGCCCCGGCCCGGTGCAGCAC,511,0.138911461189566,0.1939,0.236020037768595,2
crRNA426:435-457,GCGTCGTGCACGGGTCGGGTGAG,457,0.138764229045773,0.1929,0.235938271889509,2
crRNA901:1001-1023,TCGACAGCTTCCGGAGGCTGCGA,1023,0.138501665942285,0.1919,0.235792456564002,2
crRNA095:97-119,CGCCCTTTGGCACCAGAGGTGAG,119,0.138199522602492,0.1909,0.235624660217691,2
crRNA875:975-997,TCGCAAGAAATGCCCACATGAAT,997,0.138153371900463,0.1899,0.235599030266074,2
crRNA536:548-570,GGCCCAGCTCCTCAGCCAGGTCC,570,0.137305489069225,0.1889,0.235128155610093,2
crRNA773:822-844,GGGAAGGCATATATCTACGTTAA,844,0.136407855476653,0.1879,0.234629651697137,2
crRNA122:124-146,CAGGGCCGAGCTCGGCAGCCGCT,146,0.135866422930686,0.1869,0.2343289652645,2
crRNA565:577-599,CGCGCGCAGGTACCGTGCGACAT,599,0.135320819862037,0.1859,0.234025962717701,2
crRNA873:973-995,GCAAGAAATGCCCACATGAATGT,995,0.134500775809478,0.1848,0.233570548423518,2
crRNA330:339-361,ATCATGACCTGGTCTTCTAGGAA,361,0.134330717446592,0.1838,0.233476105924896,2
crRNA255:264-286,AGCGGCGGGCGCCCCTGGCGCTG,286,0.133683870048291,0.1828,0.233116876990277,2
crRNA094:96-118,GCCCTTTGGCACCAGAGGTGAGC,118,0.133403564427666,0.1818,0.232961208296657,2
crRNA251:257-279,GGCGCCCCTGGCGCTGCCCACTC,279,0.133006608939989,0.1808,0.232740757696865,2
crRNA886:986-1008,GGCTGCGAGGCTCGCAAGAAATG,1008,0.132487660375288,0.1798,0.232452557820806,2
crRNA874:974-996,CGCAAGAAATGCCCACATGAATG,996,0.132241340229899,0.1788,0.232315763078127,2
crRNA444:453-475,AGGAAGCCCTCCCGGGCAGCGTC,475,0.131813818537855,0.1778,0.232078337431269,2
crRNA117:119-141,CCGAGCTCGGCAGCCGCTGCGCC,141,0.131619427492543,0.1768,0.231970381693501,2
crRNA895:995-1017,GCTTCCGGAGGCTGCGAGGCTCG,1017,0.131378507399705,0.1758,0.23183658588864,2
crRNA564:576-598,GCGCGCAGGTACCGTGCGACATC,598,0.131359912793755,0.1747,0.231826259310064,2
crRNA479:488-510,GCGCCCCGGCCCGGTGCAGCACC,510,0.130049571383179,0.1737,0.231098556686315,2
crRNA281:290-312,CTCAGTAGCATCAGCACGAGGGC,312,0.129910923064413,0.1727,0.231021557864077,2
crRNA266:275-297,ACGAGGGCCACAGCGGCGGGCGC,297,0.128671178443605,0.1717,0.230333061411123,2
crRNA616:646-668,GGGGATGTCTGAGGGACCTTCCG,668,0.127501627256709,0.1707,0.229683547123898,2
crRNA409:418-440,GGTGAGAGTGGCGGGGTCGGCGC,440,0.12703017818247,0.1697,0.229421726253766,2
crRNA511:523-545,GGGCAGACGGCCCCAGGCATCGC,545,0.125557790812274,0.1687,0.228604030847196,2
crRNA119:121-143,GGCCGAGCTCGGCAGCCGCTGCG,143,0.12467630383676,0.1677,0.228114494013739,2
crRNA109:111-133,GGCAGCCGCTGCGCCGCCCTTTG,133,0.123793140209691,0.1667,0.227624026046055,2
crRNA416:425-447,CGGGTCGGGTGAGAGTGGCGGGG,447,0.12178975298902,0.1657,0.226511438040289,2
crRNA678:708-730,CTTCGGTGACTGATGATCTAAGT,730,0.121518964792206,0.1646,0.226361054880822,2
crRNA308:317-339,AGCGGCTGCTGCCCTAGACGCTG,339,0.120842376379236,0.1636,0.225985309171084,2
crRNA450:459-481,GTGTCCAGGAAGCCCTCCCGGGC,481,0.117337170204298,0.1626,0.224038680826979,2
crRNA282:291-313,CCTCAGTAGCATCAGCACGAGGG,313,0.117101902010398,0.1616,0.223908023823695,2
crRNA185:187-209,GGCCGCACGCGCGCCGAATCCGG,209,0.115714648072949,0.1606,0.223137607562758,2
crRNA442:451-473,GAAGCCCTCCCGGGCAGCGTCGT,473,0.115284074689346,0.1596,0.222898487148463,2
crRNA372:381-403,CCGTGGAGCAGCAGCAGCTCCGC,403,0.114915903725196,0.1586,0.222694022133134,2
crRNA722:752-774,AAGCGGGGTGGGTTGTGGCGGGG,774,0.11467980502123,0.1576,0.222562903903219,2
crRNA359:368-390,GCAGCTCCGCCACTCGGGCGCTG,390,0.111209703053649,0.1566,0.220635770801798,2
crRNA932:1032-1054,TTCCCTAGTTCACAAAATGCTTG,1054,0.110715644271194,0.1556,0.220361393552193,2
crRNA556:568-590,GTACCGTGCGACATCGCGATGGC,590,0.110676473367053,0.1545,0.220339639855417,2
crRNA674:704-726,GGTGACTGATGATCTAAGTTTCC,726,0.106425429471394,0.1535,0.217978807959567,2
crRNA413:422-444,GTCGGGTGAGAGTGGCGGGGTCG,444,0.105513659827771,0.1525,0.217472453541884,2
crRNA388:397-419,GCAGTTGGGCTCCGCGCCGTGGA,419,0.104628888800181,0.1515,0.216981092898774,2
crRNA566:578-600,CCGCGCGCAGGTACCGTGCGACA,600,0.104472847374068,0.1505,0.216894434754355,2
crRNA178:180-202,CGCGCGCCGAATCCGGAGGGTCA,202,0.103257358295692,0.1495,0.216219408700586,2
crRNA482:492-514,AGCCGCGCCCCGGCCCGGTGCAG,514,0.102293946862146,0.1485,0.215684374836677,2
crRNA414:423-445,GGTCGGGTGAGAGTGGCGGGGTC,445,0.101467229369495,0.1475,0.215225254424512,2
crRNA974:1092-1114,GCTTTGGTTCTGCCATTTGCTAG,1114,0.0988934360087081,0.1465,0.213795889400623,2
crRNA518:530-552,GGTCCACGGGCAGACGGCCCCAG,552,0.0983808479422624,0.1455,0.213511221849217,2
crRNA179:181-203,ACGCGCGCCGAATCCGGAGGGTC,203,0.0980674477629813,0.1444,0.213337173978253,2
crRNA258:267-289,CACAGCGGCGGGCGCCCCTGGCG,289,0.0969580662298163,0.1434,0.212721075115845,2
crRNA439:448-470,GCCCTCCCGGGCAGCGTCGTGCA,470,0.0943848363900511,0.1424,0.2112920230453,2
crRNA314:323-345,CTAGGAAGCGGCTGCTGCCCTAG,345,0.0942756697328232,0.1414,0.211231396965524,2
crRNA746:776-798,CTATTTTCTAAATGAAAACTACG,798,0.0926207624073887,0.1404,0.210312338472021,2
crRNA935:1035-1057,AGCTTCCCTAGTTCACAAAATGC,1057,0.089380564232362,0.1394,0.208512883235088,2
crRNA259:268-290,CCACAGCGGCGGGCGCCCCTGGC,290,0.089302503062554,0.1384,0.208469531695082,2
crRNA445:454-476,CAGGAAGCCCTCCCGGGCAGCGT,476,0.0892799274495736,0.1374,0.208456994250515,2
crRNA306:315-337,CGGCTGCTGCCCTAGACGCTGGC,337,0.0887273131770522,0.1364,0.208150098007453,2
crRNA180:182-204,CACGCGCGCCGAATCCGGAGGGT,204,0.0884068855866207,0.1354,0.207972147439459,2
crRNA514:526-548,CACGGGCAGACGGCCCCAGGCAT,548,0.0874937381078497,0.1343,0.207465027836271,2
crRNA263:272-294,AGGGCCACAGCGGCGGGCGCCCC,294,0.08746723184503,0.1333,0.207450307491754,2
crRNA264:273-295,GAGGGCCACAGCGGCGGGCGCCC,295,0.0869059426273114,0.1323,0.207138593587943,2
crRNA378:387-409,TCCGCGCCGTGGAGCAGCAGCAG,409,0.0856821274045768,0.1313,0.206458943581174,2
crRNA747:777-799,TCTATTTTCTAAATGAAAACTAC,799,0.0843247370283458,0.1303,0.205705112152005,2
crRNA253:259-281,CGGGCGCCCCTGGCGCTGCCCAC,281,0.0841254380722581,0.1293,0.205594430789053,2
crRNA975:1093-1115,AGCTTTGGTTCTGCCATTTGCTA,1115,0.0834090984714675,0.1283,0.205196609119996,2
crRNA164:166-188,GGAGGGTCACCAAGAACCTGCGC,188,0.0823435934859009,0.1273,0.204604877249694,2
crRNA371:380-402,CGTGGAGCAGCAGCAGCTCCGCC,402,0.0799007395465391,0.1263,0.203248229885305,2
crRNA267:276-298,CACGAGGGCCACAGCGGCGGGCG,298,0.0793877460492584,0.1253,0.202963337176486,2
crRNA257:266-288,ACAGCGGCGGGCGCCCCTGGCGC,288,0.0783189960799188,0.1242,0.202369803193249,2
crRNA701:731-753,GGGCAGTTGTGGCCCTGTAGGAC,753,0.0781603532809099,0.1232,0.202281700367416,2
crRNA719:749-771,CGGGGTGGGTTGTGGCGGGGGCA,771,0.0770893213196036,0.1222,0.201686899072066,2
crRNA838:938-960,TGAGTGCTCACTCCAGAAAACTC,960,0.0769670125303225,0.1212,0.201618974463908,2
crRNA896:996-1018,AGCTTCCGGAGGCTGCGAGGCTC,1018,0.0736725217942333,0.1202,0.19978936766585,2
crRNA252:258-280,GGGCGCCCCTGGCGCTGCCCACT,280,0.072181113181981,0.1192,0.198961108746871,2
crRNA373:382-404,GCCGTGGAGCAGCAGCAGCTCCG,404,0.0711148014910384,0.1182,0.198368928869955,2
crRNA851:951-973,TGCGCTTAGGGCGTGAGTGCTCA,973,0.0692296209958053,0.1172,0.197321987377037,2
crRNA852:952-974,GTGCGCTTAGGGCGTGAGTGCTC,974,0.0691192803821815,0.1162,0.197260709336527,2
crRNA899:999-1021,GACAGCTTCCGGAGGCTGCGAGG,1021,0.0686346011045835,0.1152,0.196991541027308,2
crRNA934:1034-1056,GCTTCCCTAGTTCACAAAATGCT,1056,0.0684085402678822,0.1141,0.196865997361614,2
crRNA680:710-732,ACCTTCGGTGACTGATGATCTAA,732,0.0677475988301797,0.1131,0.196498941253581,2
crRNA234:240-262,CCACTCCCCCGTGAGCCGCGGGA,262,0.0659795014314033,0.1121,0.19551702226228,2
crRNA900:1000-1022,CGACAGCTTCCGGAGGCTGCGAG,1022,0.0649595244419177,0.1111,0.194950574521699,2
crRNA193:199-221,TCACTCGCGGCGGGCCGCACGCG,221,0.0615870641185106,0.1101,0.193077667044286,2
crRNA391:400-422,GGCGCAGTTGGGCTCCGCGCCGT,422,0.0598762752191434,0.1091,0.192127574525878,2
crRNA370:379-401,GTGGAGCAGCAGCAGCTCCGCCA,401,0.0594747689575477,0.1081,0.191904596638087,2
crRNA720:750-772,GCGGGGTGGGTTGTGGCGGGGGC,772,0.059418870335782,0.1071,0.191873553145609,2
crRNA642:672-694,TCAGAGCCTCTCTGGTTCTTTCA,694,0.0581436413803145,0.1061,0.191165350344963,2
crRNA639:669-691,GAGCCTCTCTGGTTCTTTCAATC,691,0.056185023857912,0.1051,0.190077625345609,2
crRNA121:123-145,AGGGCCGAGCTCGGCAGCCGCTG,145,0.0529887641115064,0.104,0.188302571466622,2
crRNA640:670-692,AGAGCCTCTCTGGTTCTTTCAAT,692,0.0512295198253772,0.103,0.187325569081978,2
crRNA116:118-140,CGAGCTCGGCAGCCGCTGCGCCG,140,0.0506724225374529,0.102,0.187016183180843,2
crRNA446:455-477,CCAGGAAGCCCTCCCGGGCAGCG,477,0.0506676793775714,0.101,0.187013549050636,2
crRNA398:407-429,CGGGGTCGGCGCAGTTGGGCTCC,429,0.0483851360463144,0.1,0.185745930735616,2
crRNA268:277-299,GCACGAGGGCCACAGCGGCGGGC,299,0.0480622761477275,0.09899,0.185566629376895,2
crRNA394:403-425,GTCGGCGCAGTTGGGCTCCGCGC,425,0.0480073340950895,0.09798,0.185536117118383,2
crRNA709:739-761,TGTGGCGGGGGCAGTTGTGGCCC,761,0.0472844968675877,0.09697,0.185134686969911,2
crRNA380:389-411,GCTCCGCGCCGTGGAGCAGCAGC,411,0.0471120126313413,0.09596,0.185038897254148,2
crRNA231:237-259,CTCCCCCGTGAGCCGCGGGATGT,259,0.0470664493810621,0.09495,0.185013593545888,2
crRNA227:233-255,CCCGTGAGCCGCGGGATGTGAAC,255,0.0439744497778831,0.09394,0.183296440897195,2
crRNA393:402-424,TCGGCGCAGTTGGGCTCCGCGCC,424,0.0431240756173086,0.09293,0.18282418267287,2
crRNA939:1039-1061,CCTGAGCTTCCCTAGTTCACAAA,1061,0.0419880675357819,0.09192,0.182193296664953,2
crRNA567:579-601,GCCGCGCGCAGGTACCGTGCGAC,601,0.0419406438422099,0.09091,0.182166959753091,2
crRNA115:117-139,GAGCTCGGCAGCCGCTGCGCCGC,139,0.0377491345575884,0.0899,0.179839190608907,2
crRNA568:580-602,AGCCGCGCGCAGGTACCGTGCGA,602,0.0370054375663031,0.08889,0.179426175918641,2
crRNA721:751-773,AGCGGGGTGGGTTGTGGCGGGGG,773,0.0366854657703956,0.08788,0.179248478477708,2
crRNA641:671-693,CAGAGCCTCTCTGGTTCTTTCAA,693,0.0350824697090532,0.08687,0.17835824908384,2
crRNA256:265-287,CAGCGGCGGGCGCCCCTGGCGCT,287,0.0315187694772246,0.08586,0.176379135863406,2
crRNA405:414-436,AGAGTGGCGGGGTCGGCGCAGTT,436,0.0306770332494832,0.08485,0.175911674744885,2
crRNA233:239-261,CACTCCCCCGTGAGCCGCGGGAT,261,0.0274582498367692,0.08384,0.174124112270095,2
crRNA192:198-220,CACTCGCGGCGGGCCGCACGCGC,220,0.0257344752939952,0.08283,0.173166808129813,2
crRNA707:737-759,TGGCGGGGGCAGTTGTGGCCCTG,759,0.0241466634455479,0.08182,0.17228501134097,2
crRNA449:458-480,TGTCCAGGAAGCCCTCCCGGGCA,480,0.0231091556453242,0.08081,0.171708827804154,2
crRNA402:411-433,GTGGCGGGGTCGGCGCAGTTGGG,433,0.02141329717067,0.0798,0.170767026948628,2
crRNA677:707-729,TTCGGTGACTGATGATCTAAGTT,729,0.0212497611714725,0.07879,0.170676206667186,2
crRNA190:192-214,CGGCGGGCCGCACGCGCGCCGAA,214,0.0170698174039612,0.07778,0.168354860472837,2
crRNA706:736-758,GGCGGGGGCAGTTGTGGCCCTGT,758,0.0160508840079958,0.07677,0.167788992295517,2
crRNA313:322-344,TAGGAAGCGGCTGCTGCCCTAGA,344,0.0152884854367745,0.07576,0.167365591618303,2
crRNA703:733-755,GGGGGCAGTTGTGGCCCTGTAGG,755,0.0148692526311564,0.07475,0.167132769233124,2
crRNA770:819-841,AAGGCATATATCTACGTTAAAAG,841,0.0107509843632838,0.07374,0.164845674740313,2
crRNA397:406-428,GGGGTCGGCGCAGTTGGGCTCCG,428,0.00817655876511126,0.07273,0.16341595860121,2
crRNA675:705-727,CGGTGACTGATGATCTAAGTTTC,727,0.00670625618833996,0.07172,0.162599420991863,2
crRNA407:416-438,TGAGAGTGGCGGGGTCGGCGCAG,438,0.00575393780456101,0.07071,0.162070547691419,2
crRNA443:452-474,GGAAGCCCTCCCGGGCAGCGTCG,474,0.00560642853945076,0.0697,0.161988627912053,2
crRNA381:390-412,GGCTCCGCGCCGTGGAGCAGCAG,412,0.00541305460119616,0.06869,0.161881237028199,2
crRNA769:818-840,AGGCATATATCTACGTTAAAAGG,840,0.0049102154436817,0.06768,0.161601983567007,2
crRNA704:734-756,CGGGGGCAGTTGTGGCCCTGTAG,756,0.00370771039069241,0.06667,0.160934168236538,1
crRNA705:735-757,GCGGGGGCAGTTGTGGCCCTGTA,757,0.00251442374801118,0.06566,0.160271472382042,1
crRNA515:527-549,CCACGGGCAGACGGCCCCAGGCA,549,0.000902140304723935,0.06465,0.159376085208565,1
crRNA708:738-760,GTGGCGGGGGCAGTTGTGGCCCT,760,0.000695787354776063,0.06364,0.159261486385782,1
crRNA676:706-728,TCGGTGACTGATGATCTAAGTTT,728,-0.000940164590003841,0.06263,0.158352954828331,1
crRNA936:1036-1058,GAGCTTCCCTAGTTCACAAAATG,1058,-0.001311976549189,0.06162,0.158146467773846,1
crRNA392:401-423,CGGCGCAGTTGGGCTCCGCGCCG,423,-0.0018985507691234,0.06061,0.157820711756808,1
crRNA483:493-515,CAGCCGCGCCCCGGCCCGGTGCA,515,-0.00267769083104393,0.0596,0.157388013634967,1
crRNA406:415-437,GAGAGTGGCGGGGTCGGCGCAGT,437,-0.00331370429702271,0.05859,0.157034801362046,1
crRNA181:183-205,GCACGCGCGCCGAATCCGGAGGG,205,-0.00374716139128414,0.05758,0.156794079469087,1
crRNA232:238-260,ACTCCCCCGTGAGCCGCGGGATG,260,-0.00639723812782503,0.05657,0.155322350209254,1
crRNA517:529-551,GTCCACGGGCAGACGGCCCCAGG,551,-0.00831962905085088,0.05556,0.154254743776865,1
crRNA254:260-282,GCGGGCGCCCCTGGCGCTGCCCA,282,-0.0083267487852689,0.05455,0.154250789807789,1
crRNA412:421-443,TCGGGTGAGAGTGGCGGGGTCGG,443,-0.00839501570391125,0.05354,0.154212877538964,1
crRNA382:391-413,GGGCTCCGCGCCGTGGAGCAGCA,413,-0.0094045193044841,0.05253,0.153652246231053,1
crRNA191:197-219,ACTCGCGGCGGGCCGCACGCGCG,219,-0.0117962002797519,0.05152,0.152324017948848,1
crRNA512:524-546,CGGGCAGACGGCCCCAGGCATCG,546,-0.0121715599990071,0.05051,0.152115560633566,1
crRNA401:410-432,TGGCGGGGTCGGCGCAGTTGGGC,432,-0.0142185185941094,0.04949,0.150978775114664,1
crRNA448:457-479,GTCCAGGAAGCCCTCCCGGGCAG,479,-0.0146395399650575,0.04848,0.150744959443558,1
crRNA188:190-212,GCGGGCCGCACGCGCGCCGAATC,212,-0.0149226216294716,0.04747,0.150587749064441,1
crRNA516:528-550,TCCACGGGCAGACGGCCCCAGGC,550,-0.0169546991281733,0.04646,0.149459227813773,1
crRNA937:1037-1059,TGAGCTTCCCTAGTTCACAAAAT,1059,-0.0177644232286915,0.04545,0.149009544740565,1
crRNA230:236-258,TCCCCCGTGAGCCGCGGGATGTG,258,-0.0196757503963725,0.04444,0.147948082602883,1
crRNA403:412-434,AGTGGCGGGGTCGGCGCAGTTGG,434,-0.0207454790930345,0.04343,0.14735400508005,1
crRNA938:1038-1060,CTGAGCTTCCCTAGTTCACAAAA,1060,-0.0223377829679465,0.04242,0.14646971362881,1
crRNA435:444-466,TCCCGGGCAGCGTCGTGCACGGG,466,-0.0256514609020934,0.04141,0.144629451154105,1
crRNA386:395-417,AGTTGGGCTCCGCGCCGTGGAGC,417,-0.02584629910344,0.0404,0.14452124708669,1
crRNA933:1033-1055,CTTCCCTAGTTCACAAAATGCTT,1055,-0.0306722176205785,0.03939,0.141841156586174,1
crRNA404:413-435,GAGTGGCGGGGTCGGCGCAGTTG,435,-0.0307540664817141,0.03838,0.14179570153872,1
crRNA751:781-803,AAGCTCTATTTTCTAAATGAAAA,803,-0.030830940175973,0.03737,0.141753009467357,1
crRNA228:234-256,CCCCGTGAGCCGCGGGATGTGAA,256,-0.0311010445472229,0.03636,0.141603006072778,1
crRNA226:232-254,CCGTGAGCCGCGGGATGTGAACC,254,-0.0323423218128907,0.03535,0.140913658460213,1
crRNA387:396-418,CAGTTGGGCTCCGCGCCGTGGAG,418,-0.0327161606462644,0.03434,0.140706045774153,1
crRNA749:779-801,GCTCTATTTTCTAAATGAAAACT,801,-0.0334772182385656,0.03333,0.140283389814209,1
crRNA229:235-257,CCCCCGTGAGCCGCGGGATGTGA,257,-0.0356714761120598,0.03232,0.13906480113279,1
crRNA702:732-754,GGGGCAGTTGTGGCCCTGTAGGA,754,-0.0377399801295543,0.03131,0.13791605028922,1
crRNA778:827-849,AGTGGGGGAAGGCATATATCTAC,849,-0.0389817091545565,0.0303,0.137226451790549,1
crRNA383:392-414,TGGGCTCCGCGCCGTGGAGCAGC,414,-0.0416844577678747,0.02929,0.135725471022202,1
crRNA189:191-213,GGCGGGCCGCACGCGCGCCGAAT,213,-0.0429080533143753,0.02828,0.135045943013388,1
crRNA385:394-416,GTTGGGCTCCGCGCCGTGGAGCA,416,-0.0458439851824439,0.02727,0.133415463119907,1
crRNA754:784-806,TAAAAGCTCTATTTTCTAAATGA,806,-0.0469436450304778,0.02626,0.132804763228881,1
crRNA411:420-442,CGGGTGAGAGTGGCGGGGTCGGC,442,-0.0473640522664081,0.02525,0.132571288619775,1
crRNA748:778-800,CTCTATTTTCTAAATGAAAACTA,800,-0.0479153322733855,0.02424,0.132265133365687,1
crRNA434:443-465,CCCGGGCAGCGTCGTGCACGGGT,465,-0.0500992053602125,0.02323,0.131052311911377,1
crRNA433:442-464,CCGGGCAGCGTCGTGCACGGGTC,464,-0.0585046608871996,0.02222,0.126384313181107,1
crRNA750:780-802,AGCTCTATTTTCTAAATGAAAAC,802,-0.0598291385654616,0.02121,0.125648759932322,1
crRNA752:782-804,AAAGCTCTATTTTCTAAATGAAA,804,-0.0613440717137165,0.0202,0.124807436581101,1
crRNA384:393-415,TTGGGCTCCGCGCCGTGGAGCAG,415,-0.0668005305829762,0.01919,0.12177717332033,1
crRNA432:441-463,CGGGCAGCGTCGTGCACGGGTCG,463,-0.0705744742866743,0.01818,0.119681300662339,1
crRNA989:1128-1150,GAGTGAATGAATGAAAATTATTT,1150,-0.0730114314485039,0.01717,0.1183279280937,1
crRNA757:787-809,TTTTAAAAGCTCTATTTTCTAAA,809,-0.0730667558322513,0.01616,0.118297203506287,1
crRNA779:828-850,TAGTGGGGGAAGGCATATATCTA,850,-0.0732555138370179,0.01515,0.118192376097023,1
crRNA772:821-843,GGAAGGCATATATCTACGTTAAA,843,-0.0735118703984968,0.01414,0.118050007596037,1
crRNA408:417-439,GTGAGAGTGGCGGGGTCGGCGCA,439,-0.0736788542448476,0.01313,0.117957272540782,1
crRNA771:820-842,GAAGGCATATATCTACGTTAAAA,842,-0.0763115820064329,0.01212,0.116495178094054,1
crRNA990:1129-1151,TGAGTGAATGAATGAAAATTATT,1151,-0.0843411405787115,0.01111,0.112035935034629,1
crRNA755:785-807,TTAAAAGCTCTATTTTCTAAATG,807,-0.0954743388814649,0.0101,0.105853074941652,1
crRNA988:1127-1149,AGTGAATGAATGAAAATTATTTT,1149,-0.0989963255686867,0.009091,0.103897127482149,1
crRNA753:783-805,AAAAGCTCTATTTTCTAAATGAA,805,-0.0999385212158337,0.008081,0.103373875878423,1
crRNA986:1125-1147,TGAATGAATGAAAATTATTTTAT,1147,-0.101155511691014,0.007071,0.102698016018757,1
crRNA120:122-144,GGGCCGAGCTCGGCAGCCGCTGC,144,-0.108327000756447,0.006061,0.0987153048207617,1
crRNA756:786-808,TTTAAAAGCTCTATTTTCTAAAT,808,-0.11038938018254,0.005051,0.0975699552901592,1
crRNA987:1126-1148,GTGAATGAATGAAAATTATTTTA,1148,-0.117701793418758,0.00404,0.0935089813676534,1
crRNA985:1124-1146,GAATGAATGAAAATTATTTTATT,1146,-0.119716891763861,0.00303,0.0923898895485238,1
crRNA431:440-462,GGGCAGCGTCGTGCACGGGTCGG,462,-0.142218725404081,0.00202,0.0798934185929586,1
crRNA430:439-461,GGCAGCGTCGTGCACGGGTCGGG,461,-0.144217526987534,0.00101,0.078783377236644,1
crRNA780:829-851,GTAGTGGGGGAAGGCATATATCT,851,-0.1594916491572,0,0.0703008407857556,1
