ENST00000373237.3
ENST00000432763.2
ENST00000261396.3
ENST00000357214.5
ENST00000323853.5
ENST00000270586.3
ENST00000264028.4
ENST00000227524.4
ENST00000258091.5
ENST00000360876.4
ENST00000361570.3
ENST00000371953.3
ENST00000267163.4
ENST00000358273.4
ENST00000338641.4
ENST00000569110.1
ENST00000292478.4
ENST00000267984.2
ENST00000378279.3
ENST00000328354.6
