AARD_B1_crRNA0223:223-249	2293
AARD_B2_crRNA0188:188-214	2634
AARD_B3_crRNA0327:339-365	2754
AARD_T1_crRNA0163:163-189	2523
AARD_T2_crRNA0653:720-746	2391
AARD_T3_crRNA0296:308-334	2562
ARCN1_B1_crRNA0543:669-695	2222
ARCN1_B2_crRNA0071:71-97	2069
ARCN1_B3_crRNA0603:729-755	2849
ARCN1_T1_crRNA1248:1451-1477	2696
ARCN1_T2_crRNA1188:1368-1394	1645
ARCN1_T3_crRNA0814:940-966	1938
CCT7_B1_crRNA0464:510-536	2351
CCT7_B2_crRNA1585:1775-1801	2237
CCT7_B3_crRNA1541:1708-1734	2175
CCT7_T1_crRNA0982:1075-1101	1884
CCT7_T2_crRNA0203:226-252	2488
CCT7_T3_crRNA0509:555-581	730
CDKN2A_B1_crRNA228:321-347	2360
CDKN2A_B2_crRNA324:417-443	1642
CDKN2A_B3_crRNA158:228-254	2828
CDKN2A_T1_crRNA255:348-374	2337
CDKN2A_T2_crRNA103:149-175	1777
CDKN2A_T3_crRNA208:301-327	2760
CHEK2_B1_crRNA1276:1663-1689	1919
CHEK2_B2_crRNA0226:226-252	2468
CHEK2_B3_crRNA0331:331-357	2115
CHEK2_T1_crRNA0726:850-876	2885
CHEK2_T2_crRNA0632:756-782	2848
CHEK2_T3_crRNA0942:1280-1306	2637
EIF3B_B1_crRNA0269:287-313	2290
EIF3B_B2_crRNA0464:505-531	2120
EIF3B_B3_crRNA0125:125-151	2660
EIF3B_T1_crRNA1359:1719-1745	1389
EIF3B_T2_crRNA0778:936-962	607
EIF3B_T3_crRNA0608:718-744	2288
MESDC1_B1_crRNA0705:820-846	2474
MESDC1_B2_crRNA0619:734-760	2396
MESDC1_B3_crRNA1588:1804-1830	3003
MESDC1_T1_crRNA1719:1959-1985	2822
MESDC1_T2_crRNA1775:2015-2041	2026
MESDC1_T3_crRNA1215:1404-1430	2650
NF1_B1_crRNA0277:423-449	2279
NF1_B2_crRNA2347:2955-2981	2279
NF1_B3_crRNA6472:7913-7939	2164
NF1_T1_crRNA2932:3633-3659	2620
NF1_T2_crRNA4425:5509-5535	2146
NF1_T3_crRNA2072:2657-2683	2419
NF2_B1_crRNA0205:205-231	2354
NF2_B2_crRNA0067:67-93	2248
NF2_B3_crRNA1676:1865-1891	2219
NF2_T1_crRNA1422:1611-1637	2469
NF2_T2_crRNA0884:1027-1053	2539
NF2_T3_crRNA0825:968-994	3053
NT_rc_000038	1952
NT_rc_000341	1559
NT_rc_000358	1785
NUP133_B1_crRNA0093:93-119	2511
NUP133_B2_crRNA0203:203-229	3289
NUP133_B3_crRNA1694:2067-2093	2706
NUP133_T1_crRNA1793:2191-2217	2321
NUP133_T2_crRNA0828:914-940	1662
NUP133_T3_crRNA0428:428-454	3105
PRPF19_B1_crRNA0375:398-424	2262
PRPF19_B2_crRNA0854:877-903	2755
PRPF19_B3_crRNA1287:1367-1393	2563
PRPF19_T1_crRNA1017:1097-1123	2650
PRPF19_T2_crRNA0275:298-324	2651
PRPF19_T3_crRNA0736:759-785	2001
PSMB2_B1_crRNA0164:238-264	1759
PSMB2_B2_crRNA1253:1634-1660	2158
PSMB2_B3_crRNA0379:453-479	2482
PSMB2_T1_crRNA0744:865-891	1709
PSMB2_T2_crRNA0630:727-753	2340
PSMB2_T3_crRNA0269:343-369	2420
PSMB6_B1_crRNA121:144-170	1781
PSMB6_B2_crRNA291:375-401	2258
PSMB6_B3_crRNA610:742-768	1752
PSMB6_T1_crRNA471:579-605	1426
PSMB6_T2_crRNA570:678-704	1234
PSMB6_T3_crRNA348:432-458	1194
PTCD1_B1_crRNA1336:1521-1547	2771
PTCD1_B2_crRNA1628:1896-1922	2468
PTCD1_B3_crRNA0374:397-423	2790
PTCD1_T1_crRNA1794:2085-2111	2847
PTCD1_T2_crRNA1414:1659-1685	3116
PTCD1_T3_crRNA0401:424-450	2454
PTEN_B1_crRNA0241:264-290	1942
PTEN_B2_crRNA0854:1120-1146	2654
PTEN_B3_crRNA0293:352-378	2142
PTEN_T1_crRNA0603:757-783	2606
PTEN_T2_crRNA1411:1817-1843	1998
PTEN_T3_crRNA1568:1997-2023	2652
RB1_B1_crRNA0137:247-273	1987
RB1_B2_crRNA0060:92-118	2199
RB1_B3_crRNA1470:2029-2055	2340
RB1_T1_crRNA0649:895-921	2290
RB1_T2_crRNA0999:1440-1466	2568
RB1_T3_crRNA2041:2773-2799	3619
SFPQ_B1_crRNA0348:393-419	1835
SFPQ_B2_crRNA0482:550-576	1866
SFPQ_B3_crRNA0533:601-627	1928
SFPQ_T1_crRNA1163:1313-1339	2437
SFPQ_T2_crRNA1843:2136-2162	2331
SFPQ_T3_crRNA1599:1892-1918	2099
SNRNP200_B1_crRNA1708:1874-1900	2186
SNRNP200_B2_crRNA2069:2329-2355	2089
SNRNP200_B3_crRNA0751:774-800	1973
SNRNP200_T1_crRNA0891:962-988	2499
SNRNP200_T2_crRNA1423:1543-1569	949
SNRNP200_T3_crRNA2305:2613-2639	616
SUPT5H_B1_crRNA2474:2707-2733	1787
SUPT5H_B2_crRNA2671:2980-3006	2165
SUPT5H_B3_crRNA2590:2876-2902	1831
SUPT5H_T1_crRNA0902:973-999	2988
SUPT5H_T2_crRNA1128:1199-1225	1678
SUPT5H_T3_crRNA0404:452-478	2951
TSC2_B1_crRNA0493:540-566	2368
TSC2_B2_crRNA1407:1477-1503	2253
TSC2_B3_crRNA1243:1313-1339	2272
TSC2_T1_crRNA0762:832-858	2746
TSC2_T2_crRNA0110:133-159	3098
TSC2_T3_crRNA0902:972-998	3048
