AARD_B1_crRNA0223:223-249	5493
AARD_B2_crRNA0188:188-214	5802
AARD_B3_crRNA0327:339-365	6092
AARD_T1_crRNA0163:163-189	5562
AARD_T2_crRNA0653:720-746	4370
AARD_T3_crRNA0296:308-334	5581
ARCN1_B1_crRNA0543:669-695	4700
ARCN1_B2_crRNA0071:71-97	4385
ARCN1_B3_crRNA0603:729-755	6333
ARCN1_T1_crRNA1248:1451-1477	5450
ARCN1_T2_crRNA1188:1368-1394	2352
ARCN1_T3_crRNA0814:940-966	3304
CCT7_B1_crRNA0464:510-536	5348
CCT7_B2_crRNA1585:1775-1801	4795
CCT7_B3_crRNA1541:1708-1734	4399
CCT7_T1_crRNA0982:1075-1101	2090
CCT7_T2_crRNA0203:226-252	3558
CCT7_T3_crRNA0509:555-581	403
CDKN2A_B1_crRNA228:321-347	5170
CDKN2A_B2_crRNA324:417-443	4030
CDKN2A_B3_crRNA158:228-254	6317
CDKN2A_T1_crRNA255:348-374	5076
CDKN2A_T2_crRNA103:149-175	4237
CDKN2A_T3_crRNA208:301-327	6099
CHEK2_B1_crRNA1276:1663-1689	4312
CHEK2_B2_crRNA0226:226-252	5311
CHEK2_B3_crRNA0331:331-357	4662
CHEK2_T1_crRNA0726:850-876	6334
CHEK2_T2_crRNA0632:756-782	6488
CHEK2_T3_crRNA0942:1280-1306	5314
EIF3B_B1_crRNA0269:287-313	4551
EIF3B_B2_crRNA0464:505-531	4595
EIF3B_B3_crRNA0125:125-151	5343
EIF3B_T1_crRNA1359:1719-1745	1544
EIF3B_T2_crRNA0778:936-962	648
EIF3B_T3_crRNA0608:718-744	4811
MESDC1_B1_crRNA0705:820-846	5474
MESDC1_B2_crRNA0619:734-760	5251
MESDC1_B3_crRNA1588:1804-1830	6790
MESDC1_T1_crRNA1719:1959-1985	5675
MESDC1_T2_crRNA1775:2015-2041	4057
MESDC1_T3_crRNA1215:1404-1430	5541
NF1_B1_crRNA0277:423-449	4937
NF1_B2_crRNA2347:2955-2981	4871
NF1_B3_crRNA6472:7913-7939	4513
NF1_T1_crRNA2932:3633-3659	5050
NF1_T2_crRNA4425:5509-5535	3530
NF1_T3_crRNA2072:2657-2683	5264
NF2_B1_crRNA0205:205-231	4764
NF2_B2_crRNA0067:67-93	5428
NF2_B3_crRNA1676:1865-1891	4817
NF2_T1_crRNA1422:1611-1637	5329
NF2_T2_crRNA0884:1027-1053	5346
NF2_T3_crRNA0825:968-994	7250
NT_rc_000038	4357
NT_rc_000341	3248
NT_rc_000358	3951
NUP133_B1_crRNA0093:93-119	5553
NUP133_B2_crRNA0203:203-229	5655
NUP133_B3_crRNA1694:2067-2093	5562
NUP133_T1_crRNA1793:2191-2217	3829
NUP133_T2_crRNA0828:914-940	2500
NUP133_T3_crRNA0428:428-454	6952
PRPF19_B1_crRNA0375:398-424	4982
PRPF19_B2_crRNA0854:877-903	6051
PRPF19_B3_crRNA1287:1367-1393	5551
PRPF19_T1_crRNA1017:1097-1123	5914
PRPF19_T2_crRNA0275:298-324	4677
PRPF19_T3_crRNA0736:759-785	4436
PSMB2_B1_crRNA0164:238-264	4026
PSMB2_B2_crRNA1253:1634-1660	4237
PSMB2_B3_crRNA0379:453-479	5353
PSMB2_T1_crRNA0744:865-891	1792
PSMB2_T2_crRNA0630:727-753	3536
PSMB2_T3_crRNA0269:343-369	4950
PSMB6_B1_crRNA121:144-170	1150
PSMB6_B2_crRNA291:375-401	5059
PSMB6_B3_crRNA610:742-768	3700
PSMB6_T1_crRNA471:579-605	2244
PSMB6_T2_crRNA570:678-704	1543
PSMB6_T3_crRNA348:432-458	1490
PTCD1_B1_crRNA1336:1521-1547	5888
PTCD1_B2_crRNA1628:1896-1922	5459
PTCD1_B3_crRNA0374:397-423	5806
PTCD1_T1_crRNA1794:2085-2111	6416
PTCD1_T2_crRNA1414:1659-1685	6611
PTCD1_T3_crRNA0401:424-450	5548
PTEN_B1_crRNA0241:264-290	4418
PTEN_B2_crRNA0854:1120-1146	5431
PTEN_B3_crRNA0293:352-378	4792
PTEN_T1_crRNA0603:757-783	5396
PTEN_T2_crRNA1411:1817-1843	3532
PTEN_T3_crRNA1568:1997-2023	5866
RB1_B1_crRNA0137:247-273	4687
RB1_B2_crRNA0060:92-118	4533
RB1_B3_crRNA1470:2029-2055	5159
RB1_T1_crRNA0649:895-921	4588
RB1_T2_crRNA0999:1440-1466	5742
RB1_T3_crRNA2041:2773-2799	7967
SFPQ_B1_crRNA0348:393-419	4383
SFPQ_B2_crRNA0482:550-576	3902
SFPQ_B3_crRNA0533:601-627	4004
SFPQ_T1_crRNA1163:1313-1339	4071
SFPQ_T2_crRNA1843:2136-2162	4925
SFPQ_T3_crRNA1599:1892-1918	2223
SNRNP200_B1_crRNA1708:1874-1900	4952
SNRNP200_B2_crRNA2069:2329-2355	4451
SNRNP200_B3_crRNA0751:774-800	3347
SNRNP200_T1_crRNA0891:962-988	4271
SNRNP200_T2_crRNA1423:1543-1569	1337
SNRNP200_T3_crRNA2305:2613-2639	546
SUPT5H_B1_crRNA2474:2707-2733	3838
SUPT5H_B2_crRNA2671:2980-3006	5003
SUPT5H_B3_crRNA2590:2876-2902	4226
SUPT5H_T1_crRNA0902:973-999	6743
SUPT5H_T2_crRNA1128:1199-1225	2152
SUPT5H_T3_crRNA0404:452-478	7159
TSC2_B1_crRNA0493:540-566	4889
TSC2_B2_crRNA1407:1477-1503	4848
TSC2_B3_crRNA1243:1313-1339	5257
TSC2_T1_crRNA0762:832-858	6262
TSC2_T2_crRNA0110:133-159	7017
TSC2_T3_crRNA0902:972-998	6650
